#FIG 3.2  Produced by xfig version 3.2.7a
Portrait
Center
Metric
A4
100.00
Single
-2
1200 2
2 2 0 0 0 9 51 -1 32 0.000 0 0 -1 0 0 5
	 1260 630 1800 630 1800 810 1260 810 1260 630
2 2 0 0 0 9 51 -1 32 0.000 0 0 -1 0 0 5
	 1980 630 2520 630 2520 810 1980 810 1980 630
2 2 0 0 0 9 51 -1 32 0.000 0 0 -1 0 0 5
	 2700 630 3240 630 3240 810 2700 810 2700 630
2 2 0 0 0 9 51 -1 32 0.000 0 0 -1 0 0 5
	 3420 630 3960 630 3960 810 3420 810 3420 630
2 2 0 1 0 9 53 -1 36 0.000 0 0 -1 0 0 5
	 450 450 4050 450 4050 900 450 900 450 450
2 2 0 0 0 9 51 -1 32 0.000 0 0 -1 0 0 5
	 540 630 1080 630 1080 810 540 810 540 630
2 2 0 0 0 12 52 -1 34 0.000 0 0 -1 0 0 5
	 540 1080 1080 1080 1080 1260 540 1260 540 1080
2 2 0 0 0 12 52 -1 34 0.000 0 0 -1 0 0 5
	 1260 1080 1800 1080 1800 1260 1260 1260 1260 1080
2 2 0 0 0 12 52 -1 34 0.000 0 0 -1 0 0 5
	 1980 1080 2520 1080 2520 1260 1980 1260 1980 1080
2 2 0 0 0 12 52 -1 34 0.000 0 0 -1 0 0 5
	 2700 1080 3240 1080 3240 1260 2700 1260 2700 1080
2 2 0 0 0 12 52 -1 34 0.000 0 0 -1 0 0 5
	 3420 1080 3960 1080 3960 1260 3420 1260 3420 1080
2 2 0 0 0 12 52 -1 34 0.000 0 0 -1 0 0 5
	 1980 1305 2520 1305 2520 1485 1980 1485 1980 1305
2 2 0 0 0 12 52 -1 34 0.000 0 0 -1 0 0 5
	 1260 1305 1800 1305 1800 1485 1260 1485 1260 1305
2 2 0 0 0 12 52 -1 34 0.000 0 0 -1 0 0 5
	 540 1305 1080 1305 1080 1485 540 1485 540 1305
2 2 0 0 0 12 52 -1 34 0.000 0 0 -1 0 0 5
	 2700 1305 3240 1305 3240 1485 2700 1485 2700 1305
2 2 0 0 0 12 52 -1 34 0.000 0 0 -1 0 0 5
	 3420 1305 3960 1305 3960 1485 3420 1485 3420 1305
2 2 0 1 0 12 53 -1 38 0.000 0 0 -1 0 0 5
	 450 900 4050 900 4050 1575 450 1575 450 900
2 2 0 1 0 21 53 -1 36 0.000 0 0 -1 0 0 5
	 450 1575 4050 1575 4050 2250 450 2250 450 1575
2 2 0 0 0 21 51 -1 32 0.000 0 0 -1 0 0 5
	 540 1755 1080 1755 1080 1935 540 1935 540 1755
2 2 0 0 0 21 51 -1 32 0.000 0 0 -1 0 0 5
	 540 1980 1080 1980 1080 2160 540 2160 540 1980
2 2 0 0 0 21 51 -1 32 0.000 0 0 -1 0 0 5
	 1260 1755 1800 1755 1800 1935 1260 1935 1260 1755
2 2 0 0 0 21 51 -1 32 0.000 0 0 -1 0 0 5
	 1260 1980 1800 1980 1800 2160 1260 2160 1260 1980
2 2 0 0 0 21 51 -1 32 0.000 0 0 -1 0 0 5
	 1980 1755 2520 1755 2520 1935 1980 1935 1980 1755
2 2 0 0 0 21 51 -1 32 0.000 0 0 -1 0 0 5
	 1980 1980 2520 1980 2520 2160 1980 2160 1980 1980
2 2 0 0 0 21 51 -1 32 0.000 0 0 -1 0 0 5
	 2700 1755 3240 1755 3240 1935 2700 1935 2700 1755
2 2 0 0 0 21 51 -1 32 0.000 0 0 -1 0 0 5
	 2700 1980 3240 1980 3240 2160 2700 2160 2700 1980
2 2 0 0 0 21 51 -1 32 0.000 0 0 -1 0 0 5
	 3420 1755 3960 1755 3960 1935 3420 1935 3420 1755
2 2 0 0 0 21 51 -1 32 0.000 0 0 -1 0 0 5
	 3420 1980 3960 1980 3960 2160 3420 2160 3420 1980
2 2 0 1 0 15 53 -1 36 0.000 0 0 -1 0 0 5
	 450 2250 4050 2250 4050 2925 450 2925 450 2250
2 2 0 0 0 15 51 -1 32 0.000 0 0 -1 0 0 5
	 540 2430 1080 2430 1080 2610 540 2610 540 2430
2 2 0 0 0 15 51 -1 32 0.000 0 0 -1 0 0 5
	 540 2655 1080 2655 1080 2835 540 2835 540 2655
2 2 0 0 0 15 51 -1 32 0.000 0 0 -1 0 0 5
	 1260 2430 1800 2430 1800 2610 1260 2610 1260 2430
2 2 0 0 0 15 51 -1 32 0.000 0 0 -1 0 0 5
	 1260 2655 1800 2655 1800 2835 1260 2835 1260 2655
2 2 0 0 0 15 51 -1 32 0.000 0 0 -1 0 0 5
	 1980 2430 2520 2430 2520 2610 1980 2610 1980 2430
2 2 0 0 0 15 51 -1 32 0.000 0 0 -1 0 0 5
	 1980 2655 2520 2655 2520 2835 1980 2835 1980 2655
2 2 0 0 0 15 51 -1 32 0.000 0 0 -1 0 0 5
	 2700 2430 3240 2430 3240 2610 2700 2610 2700 2430
2 2 0 0 0 15 51 -1 32 0.000 0 0 -1 0 0 5
	 2700 2655 3240 2655 3240 2835 2700 2835 2700 2655
2 2 0 0 0 15 51 -1 32 0.000 0 0 -1 0 0 5
	 3420 2430 3960 2430 3960 2610 3420 2610 3420 2430
2 2 0 0 0 15 51 -1 32 0.000 0 0 -1 0 0 5
	 3420 2655 3960 2655 3960 2835 3420 2835 3420 2655
2 2 0 1 0 4 53 -1 38 0.000 0 0 -1 0 0 5
	 450 2925 4050 2925 4050 4950 450 4950 450 2925
2 2 0 0 0 0 55 -1 20 0.000 0 0 -1 0 0 5
	 495 495 4095 495 4095 4995 495 4995 495 495
2 2 0 0 0 4 52 -1 34 0.000 0 0 -1 0 0 5
	 540 3780 3960 3780 3960 4185 540 4185 540 3780
2 2 0 0 0 4 51 -1 30 0.000 0 0 -1 0 0 5
	 630 3285 3870 3285 3870 3465 630 3465 630 3285
2 2 0 0 0 4 52 -1 34 0.000 0 0 -1 0 0 5
	 540 3105 3960 3105 3960 3735 540 3735 540 3105
2 2 0 0 0 4 51 -1 30 0.000 0 0 -1 0 0 5
	 1305 3510 1845 3510 1845 3690 1305 3690 1305 3510
2 2 0 0 0 4 51 -1 30 0.000 0 0 -1 0 0 5
	 1980 3510 2520 3510 2520 3690 1980 3690 1980 3510
2 2 0 0 0 4 51 -1 30 0.000 0 0 -1 0 0 5
	 2655 3510 3195 3510 3195 3690 2655 3690 2655 3510
2 2 0 0 0 4 51 -1 30 0.000 0 0 -1 0 0 5
	 3330 3510 3870 3510 3870 3690 3330 3690 3330 3510
2 2 0 0 0 4 51 -1 30 0.000 0 0 -1 0 0 5
	 630 3510 1170 3510 1170 3690 630 3690 630 3510
2 2 0 0 0 4 51 -1 30 0.000 0 0 -1 0 0 5
	 630 3960 1170 3960 1170 4140 630 4140 630 3960
2 2 0 0 0 4 51 -1 30 0.000 0 0 -1 0 0 5
	 1305 3960 1845 3960 1845 4140 1305 4140 1305 3960
2 2 0 0 0 4 51 -1 30 0.000 0 0 -1 0 0 5
	 1980 3960 2520 3960 2520 4140 1980 4140 1980 3960
2 2 0 0 0 4 51 -1 30 0.000 0 0 -1 0 0 5
	 2655 3960 3195 3960 3195 4140 2655 4140 2655 3960
2 2 0 0 0 4 51 -1 30 0.000 0 0 -1 0 0 5
	 3330 3960 3870 3960 3870 4140 3330 4140 3330 3960
2 2 0 0 0 4 52 -1 34 0.000 0 0 -1 0 0 5
	 540 4230 3960 4230 3960 4860 540 4860 540 4230
2 2 0 0 0 4 51 -1 30 0.000 0 0 -1 0 0 5
	 1980 4635 2520 4635 2520 4815 1980 4815 1980 4635
2 2 0 0 0 4 51 -1 30 0.000 0 0 -1 0 0 5
	 2655 4635 3195 4635 3195 4815 2655 4815 2655 4635
2 2 0 0 0 4 51 -1 30 0.000 0 0 -1 0 0 5
	 3330 4635 3870 4635 3870 4815 3330 4815 3330 4635
2 2 0 0 0 4 51 -1 30 0.000 0 0 -1 0 0 5
	 630 4635 1170 4635 1170 4815 630 4815 630 4635
2 2 0 0 0 4 51 -1 30 0.000 0 0 -1 0 0 5
	 630 4410 3870 4410 3870 4590 630 4590 630 4410
2 2 0 0 0 4 51 -1 30 0.000 0 0 -1 0 0 5
	 1305 4635 1845 4635 1845 4815 1305 4815 1305 4635
2 1 1 1 0 7 50 -1 -1 4.000 0 0 -1 0 0 2
	 4050 2925 5580 2925
3 0 0 1 0 7 50 -1 -1 0.000 0 0 0 6
	 4230 450 4275 450 4275 495 4275 630 4275 675 4320 675
	 0.000 1.000 1.000 1.000 1.000 0.000
3 0 0 1 0 7 50 -1 -1 0.000 0 0 0 6
	 4230 900 4275 900 4275 855 4275 720 4275 675 4320 675
	 0.000 1.000 1.000 1.000 1.000 0.000
3 0 0 1 0 7 50 -1 -1 0.000 0 0 0 6
	 4230 945 4275 945 4275 990 4275 1890 4275 1935 4320 1935
	 0.000 1.000 1.000 1.000 1.000 0.000
3 0 0 1 0 7 50 -1 -1 0.000 0 0 0 6
	 4230 2880 4275 2880 4275 2835 4275 1980 4275 1935 4320 1935
	 0.000 1.000 1.000 1.000 1.000 0.000
3 0 0 1 0 7 50 -1 -1 0.000 0 0 0 6
	 4230 2970 4275 2970 4275 3015 4275 3915 4275 3960 4320 3960
	 0.000 1.000 1.000 1.000 1.000 0.000
3 0 0 1 0 7 50 -1 -1 0.000 0 0 0 6
	 4230 4950 4275 4950 4275 4905 4275 4005 4275 3960 4320 3960
	 0.000 1.000 1.000 1.000 1.000 0.000
4 1 0 50 -1 16 8 0.0000 4 135 750 2250 585 Applications\001
4 1 0 50 -1 20 6 0.0000 4 90 300 2970 765 Camera\001
4 1 0 50 -1 20 6 0.0000 4 15 90 3690 765 ...\001
4 1 0 50 -1 16 8 0.0000 4 105 840 2250 1035 Cocoa Touch\001
4 1 0 50 -1 20 6 0.0000 4 105 390 810 765 Telephone\001
4 1 0 50 -1 20 6 0.0000 4 90 150 1530 765 Mail\001
4 1 0 50 -1 20 6 0.0000 4 90 330 2250 765 Calendar\001
4 1 0 50 -1 20 6 0.0000 4 90 405 810 1215 Controllers\001
4 1 0 50 -1 20 6 0.0000 4 90 615 1530 1215 Multi-Touch Evt\001
4 1 0 50 -1 20 6 0.0000 4 90 225 2250 1215 Alerts\001
4 1 0 50 -1 20 6 0.0000 4 105 525 2970 1215 People Picker\001
4 1 0 50 -1 20 6 0.0000 4 120 510 3690 1215 Image Picker\001
4 1 0 50 -1 20 6 0.0000 4 120 420 2250 1440 Gyroscope\001
4 1 0 50 -1 20 6 0.0000 4 120 570 1530 1440 View Hierarchy\001
4 1 0 50 -1 20 6 0.0000 4 90 615 810 1440 Multi-Touch Ctrl\001
4 1 0 50 -1 20 6 0.0000 4 90 435 2970 1440 Localization\001
4 1 0 50 -1 20 6 0.0000 4 90 405 3690 1440 Web views\001
4 1 0 50 -1 16 8 0.0000 4 105 375 2250 1710 Media\001
4 1 0 50 -1 20 6 0.0000 4 90 420 810 1890 Core Audio\001
4 1 0 50 -1 20 6 0.0000 4 120 585 810 2115 Video Playback\001
4 1 0 50 -1 20 6 0.0000 4 120 615 1530 1890 Audio Recording\001
4 1 0 50 -1 20 6 0.0000 4 120 480 1530 2115 Audio Mixing\001
4 1 0 50 -1 20 6 0.0000 4 90 270 2250 1890 Quartz\001
4 1 0 50 -1 20 6 0.0000 4 90 405 2250 2115 Core Anim\001
4 1 0 50 -1 20 6 0.0000 4 120 600 2970 1890 Image Formats\001
4 1 0 50 -1 20 6 0.0000 4 90 180 2970 2115 PDF\001
4 1 0 50 -1 20 6 0.0000 4 105 330 3690 1890 OpenGL\001
4 1 0 50 -1 20 6 0.0000 4 105 480 3690 2115 OpenGL ES\001
4 1 0 50 -1 16 8 0.0000 4 105 885 2250 2385 Core Services\001
4 1 0 50 -1 20 6 0.0000 4 90 405 810 2565 Collections\001
4 1 0 50 -1 20 6 0.0000 4 90 450 810 2790 File Access\001
4 1 0 50 -1 20 6 0.0000 4 90 405 1530 2565 Addr Book\001
4 1 0 50 -1 20 6 0.0000 4 90 270 1530 2790 SQLite\001
4 1 0 50 -1 20 6 0.0000 4 90 495 2250 2565 Net Services\001
4 1 0 50 -1 20 6 0.0000 4 120 420 2250 2790 Networking\001
4 1 0 50 -1 20 6 0.0000 4 90 525 2970 2565 Core Location\001
4 1 0 50 -1 20 6 0.0000 4 120 375 2970 2790 Threading\001
4 1 0 50 -1 20 6 0.0000 4 90 465 3690 2565 Preferences\001
4 1 0 50 -1 20 6 0.0000 4 90 360 3690 2790 URL Utils\001
4 1 0 50 -1 16 8 0.0000 4 135 1395 2250 3060 Core OS (XNU kernel)\001
4 1 0 50 -1 16 7 0.0000 4 90 285 2250 3915 Mach\001
4 1 0 50 -1 16 7 0.0000 4 90 240 2250 3240 BSD\001
4 1 0 50 -1 20 6 0.0000 4 120 315 2250 3420 Syscalls\001
4 1 0 50 -1 20 6 0.0000 4 90 210 1575 3645 Audio\001
4 1 0 50 -1 20 6 0.0000 4 90 405 2250 3645 Processes\001
4 1 0 50 -1 20 6 0.0000 4 90 345 2925 3645 Pthreads\001
4 1 0 50 -1 20 6 0.0000 4 120 510 3600 3645 File Systems\001
4 1 0 50 -1 20 6 0.0000 4 120 420 900 3645 Networking\001
4 1 0 50 -1 20 6 0.0000 4 90 150 900 4095 IPC\001
4 1 0 50 -1 20 6 0.0000 4 90 180 1575 4095 RPC\001
4 1 0 50 -1 20 6 0.0000 4 90 195 2250 4095 SMP\001
4 1 0 50 -1 20 6 0.0000 4 90 135 2925 4095 VM\001
4 1 0 50 -1 20 6 0.0000 4 120 540 3600 4095 Pager support\001
4 1 0 50 -1 20 6 0.0000 4 90 240 2925 4770 SATA\001
4 1 0 50 -1 20 6 0.0000 4 15 90 3600 4770 ...\001
4 1 0 50 -1 20 6 0.0000 4 90 270 2250 4545 I/O Kit\001
4 1 0 50 -1 16 7 0.0000 4 90 390 2250 4365 Drivers\001
4 1 0 50 -1 20 6 0.0000 4 90 165 900 4770 Disk\001
4 1 0 50 -1 20 6 0.0000 4 90 210 1575 4770 SCSI\001
4 1 0 50 -1 20 6 0.0000 4 90 150 2250 4770 PCI\001
4 0 0 50 -1 16 8 0.0000 4 135 750 4365 720 Applications\001
4 0 0 50 -1 16 8 0.0000 4 135 375 4365 1980 Bibliothèques\001
4 2 0 50 -1 17 6 0.0000 4 90 780 5535 2790 mode utilisateur\001
4 2 0 50 -1 17 6 0.0000 4 105 870 5535 3105 mode superviseur\001
4 0 0 50 -1 16 8 0.0000 4 135 405 4365 4005 Noyau\001
