<?xml version="1.0" encoding="utf-8"  standalone="no"?>
<svg 
 width="600" height="480"
 viewBox="0 0 600 480"
 xmlns="http://www.w3.org/2000/svg"
 xmlns:xlink="http://www.w3.org/1999/xlink"
>

<title>Gnuplot</title>
<desc>Produced by GNUPLOT 5.0 patchlevel 6 </desc>

<g id="gnuplot_canvas">

<rect x="0" y="0" width="600" height="480" fill="#ffffff"/>
<defs>

	<circle id='gpDot' r='0.5' stroke-width='0.5'/>
	<path id='gpPt0' stroke-width='0.222' stroke='currentColor' d='M-1,0 h2 M0,-1 v2'/>
	<path id='gpPt1' stroke-width='0.222' stroke='currentColor' d='M-1,-1 L1,1 M1,-1 L-1,1'/>
	<path id='gpPt2' stroke-width='0.222' stroke='currentColor' d='M-1,0 L1,0 M0,-1 L0,1 M-1,-1 L1,1 M-1,1 L1,-1'/>
	<rect id='gpPt3' stroke-width='0.222' stroke='currentColor' x='-1' y='-1' width='2' height='2'/>
	<rect id='gpPt4' stroke-width='0.222' stroke='currentColor' fill='currentColor' x='-1' y='-1' width='2' height='2'/>
	<circle id='gpPt5' stroke-width='0.222' stroke='currentColor' cx='0' cy='0' r='1'/>
	<use xlink:href='#gpPt5' id='gpPt6' fill='currentColor' stroke='none'/>
	<path id='gpPt7' stroke-width='0.222' stroke='currentColor' d='M0,-1.33 L-1.33,0.67 L1.33,0.67 z'/>
	<use xlink:href='#gpPt7' id='gpPt8' fill='currentColor' stroke='none'/>
	<use xlink:href='#gpPt7' id='gpPt9' stroke='currentColor' transform='rotate(180)'/>
	<use xlink:href='#gpPt9' id='gpPt10' fill='currentColor' stroke='none'/>
	<use xlink:href='#gpPt3' id='gpPt11' stroke='currentColor' transform='rotate(45)'/>
	<use xlink:href='#gpPt11' id='gpPt12' fill='currentColor' stroke='none'/>
	<path id='gpPt13' stroke-width='0.222' stroke='currentColor' d='M0,1.330 L1.265,0.411 L0.782,-1.067 L-0.782,-1.076 L-1.265,0.411 z'/>
	<use xlink:href='#gpPt13' id='gpPt14' fill='currentColor' stroke='none'/>
	<filter id='textbox' filterUnits='objectBoundingBox' x='0' y='0' height='1' width='1'>
	  <feFlood flood-color='#FFFFFF' flood-opacity='1' result='bgnd'/>
	  <feComposite in='SourceGraphic' in2='bgnd' operator='atop'/>
	</filter>
	<filter id='greybox' filterUnits='objectBoundingBox' x='0' y='0' height='1' width='1'>
	  <feFlood flood-color='lightgrey' flood-opacity='1' result='grey'/>
	  <feComposite in='SourceGraphic' in2='grey' operator='atop'/>
	</filter>
</defs>
<g fill="none" color="#FFFFFF" stroke="currentColor" stroke-width="1.00" stroke-linecap="butt" stroke-linejoin="miter">
</g>
<g fill="none" color="black" stroke="currentColor" stroke-width="1.00" stroke-linecap="butt" stroke-linejoin="miter">
</g>
<g fill="none" color="black" stroke="black" stroke-width="0.50" stroke-linecap="butt" stroke-linejoin="miter">
</g>
<g fill="none" color="gray" stroke="currentColor" stroke-width="0.50" stroke-linecap="butt" stroke-linejoin="miter">
	<path stroke='gray' stroke-dasharray='2,4' class="gridline"  d='M62.2,428.8 L575.0,428.8  '/></g>
<g fill="none" color="gray" stroke="gray" stroke-width="1.00" stroke-linecap="butt" stroke-linejoin="miter">
</g>
<g fill="none" color="black" stroke="currentColor" stroke-width="1.00" stroke-linecap="butt" stroke-linejoin="miter">
	<path stroke='black'  d='M62.2,428.8 L71.2,428.8 M575.0,428.8 L566.0,428.8  '/>	<g transform="translate(53.9,432.7)" stroke="none" fill="black" font-family="Arial" font-size="12.00"  text-anchor="end">
		<text xml:space="preserve"><tspan font-family="Arial"  xml:space="preserve">1  </tspan></text>
	</g>
</g>
<g fill="none" color="black" stroke="currentColor" stroke-width="1.00" stroke-linecap="butt" stroke-linejoin="miter">
</g>
<g fill="none" color="black" stroke="black" stroke-width="0.50" stroke-linecap="butt" stroke-linejoin="miter">
</g>
<g fill="none" color="gray" stroke="currentColor" stroke-width="0.50" stroke-linecap="butt" stroke-linejoin="miter">
	<path stroke='gray' stroke-dasharray='2,4' class="gridline"  d='M62.2,391.3 L575.0,391.3  '/></g>
<g fill="none" color="gray" stroke="gray" stroke-width="1.00" stroke-linecap="butt" stroke-linejoin="miter">
</g>
<g fill="none" color="black" stroke="currentColor" stroke-width="1.00" stroke-linecap="butt" stroke-linejoin="miter">
	<path stroke='black'  d='M62.2,391.3 L71.2,391.3 M575.0,391.3 L566.0,391.3  '/>	<g transform="translate(53.9,395.2)" stroke="none" fill="black" font-family="Arial" font-size="12.00"  text-anchor="end">
		<text xml:space="preserve"><tspan font-family="Arial"  xml:space="preserve">10  </tspan></text>
	</g>
</g>
<g fill="none" color="black" stroke="currentColor" stroke-width="1.00" stroke-linecap="butt" stroke-linejoin="miter">
</g>
<g fill="none" color="black" stroke="black" stroke-width="0.50" stroke-linecap="butt" stroke-linejoin="miter">
</g>
<g fill="none" color="gray" stroke="currentColor" stroke-width="0.50" stroke-linecap="butt" stroke-linejoin="miter">
	<path stroke='gray' stroke-dasharray='2,4' class="gridline"  d='M62.2,353.9 L575.0,353.9  '/></g>
<g fill="none" color="gray" stroke="gray" stroke-width="1.00" stroke-linecap="butt" stroke-linejoin="miter">
</g>
<g fill="none" color="black" stroke="currentColor" stroke-width="1.00" stroke-linecap="butt" stroke-linejoin="miter">
	<path stroke='black'  d='M62.2,353.9 L71.2,353.9 M575.0,353.9 L566.0,353.9  '/>	<g transform="translate(53.9,357.8)" stroke="none" fill="black" font-family="Arial" font-size="12.00"  text-anchor="end">
		<text xml:space="preserve"><tspan font-family="Arial"  xml:space="preserve">100  </tspan></text>
	</g>
</g>
<g fill="none" color="black" stroke="currentColor" stroke-width="1.00" stroke-linecap="butt" stroke-linejoin="miter">
</g>
<g fill="none" color="black" stroke="black" stroke-width="0.50" stroke-linecap="butt" stroke-linejoin="miter">
</g>
<g fill="none" color="gray" stroke="currentColor" stroke-width="0.50" stroke-linecap="butt" stroke-linejoin="miter">
	<path stroke='gray' stroke-dasharray='2,4' class="gridline"  d='M62.2,316.4 L575.0,316.4  '/></g>
<g fill="none" color="gray" stroke="gray" stroke-width="1.00" stroke-linecap="butt" stroke-linejoin="miter">
</g>
<g fill="none" color="black" stroke="currentColor" stroke-width="1.00" stroke-linecap="butt" stroke-linejoin="miter">
	<path stroke='black'  d='M62.2,316.4 L71.2,316.4 M575.0,316.4 L566.0,316.4  '/>	<g transform="translate(53.9,320.3)" stroke="none" fill="black" font-family="Arial" font-size="12.00"  text-anchor="end">
		<text><tspan font-family="Arial" >1 k</tspan></text>
	</g>
</g>
<g fill="none" color="black" stroke="currentColor" stroke-width="1.00" stroke-linecap="butt" stroke-linejoin="miter">
</g>
<g fill="none" color="black" stroke="black" stroke-width="0.50" stroke-linecap="butt" stroke-linejoin="miter">
</g>
<g fill="none" color="gray" stroke="currentColor" stroke-width="0.50" stroke-linecap="butt" stroke-linejoin="miter">
	<path stroke='gray' stroke-dasharray='2,4' class="gridline"  d='M62.2,278.9 L575.0,278.9  '/></g>
<g fill="none" color="gray" stroke="gray" stroke-width="1.00" stroke-linecap="butt" stroke-linejoin="miter">
</g>
<g fill="none" color="black" stroke="currentColor" stroke-width="1.00" stroke-linecap="butt" stroke-linejoin="miter">
	<path stroke='black'  d='M62.2,278.9 L71.2,278.9 M575.0,278.9 L566.0,278.9  '/>	<g transform="translate(53.9,282.8)" stroke="none" fill="black" font-family="Arial" font-size="12.00"  text-anchor="end">
		<text><tspan font-family="Arial" >10 k</tspan></text>
	</g>
</g>
<g fill="none" color="black" stroke="currentColor" stroke-width="1.00" stroke-linecap="butt" stroke-linejoin="miter">
</g>
<g fill="none" color="black" stroke="black" stroke-width="0.50" stroke-linecap="butt" stroke-linejoin="miter">
</g>
<g fill="none" color="gray" stroke="currentColor" stroke-width="0.50" stroke-linecap="butt" stroke-linejoin="miter">
	<path stroke='gray' stroke-dasharray='2,4' class="gridline"  d='M62.2,241.4 L575.0,241.4  '/></g>
<g fill="none" color="gray" stroke="gray" stroke-width="1.00" stroke-linecap="butt" stroke-linejoin="miter">
</g>
<g fill="none" color="black" stroke="currentColor" stroke-width="1.00" stroke-linecap="butt" stroke-linejoin="miter">
	<path stroke='black'  d='M62.2,241.4 L71.2,241.4 M575.0,241.4 L566.0,241.4  '/>	<g transform="translate(53.9,245.3)" stroke="none" fill="black" font-family="Arial" font-size="12.00"  text-anchor="end">
		<text><tspan font-family="Arial" >100 k</tspan></text>
	</g>
</g>
<g fill="none" color="black" stroke="currentColor" stroke-width="1.00" stroke-linecap="butt" stroke-linejoin="miter">
</g>
<g fill="none" color="black" stroke="black" stroke-width="0.50" stroke-linecap="butt" stroke-linejoin="miter">
</g>
<g fill="none" color="gray" stroke="currentColor" stroke-width="0.50" stroke-linecap="butt" stroke-linejoin="miter">
	<path stroke='gray' stroke-dasharray='2,4' class="gridline"  d='M62.2,204.0 L575.0,204.0  '/></g>
<g fill="none" color="gray" stroke="gray" stroke-width="1.00" stroke-linecap="butt" stroke-linejoin="miter">
</g>
<g fill="none" color="black" stroke="currentColor" stroke-width="1.00" stroke-linecap="butt" stroke-linejoin="miter">
	<path stroke='black'  d='M62.2,204.0 L71.2,204.0 M575.0,204.0 L566.0,204.0  '/>	<g transform="translate(53.9,207.9)" stroke="none" fill="black" font-family="Arial" font-size="12.00"  text-anchor="end">
		<text><tspan font-family="Arial" >1 M</tspan></text>
	</g>
</g>
<g fill="none" color="black" stroke="currentColor" stroke-width="1.00" stroke-linecap="butt" stroke-linejoin="miter">
</g>
<g fill="none" color="black" stroke="black" stroke-width="0.50" stroke-linecap="butt" stroke-linejoin="miter">
</g>
<g fill="none" color="gray" stroke="currentColor" stroke-width="0.50" stroke-linecap="butt" stroke-linejoin="miter">
	<path stroke='gray' stroke-dasharray='2,4' class="gridline"  d='M62.2,166.5 L575.0,166.5  '/></g>
<g fill="none" color="gray" stroke="gray" stroke-width="1.00" stroke-linecap="butt" stroke-linejoin="miter">
</g>
<g fill="none" color="black" stroke="currentColor" stroke-width="1.00" stroke-linecap="butt" stroke-linejoin="miter">
	<path stroke='black'  d='M62.2,166.5 L71.2,166.5 M575.0,166.5 L566.0,166.5  '/>	<g transform="translate(53.9,170.4)" stroke="none" fill="black" font-family="Arial" font-size="12.00"  text-anchor="end">
		<text><tspan font-family="Arial" >10 M</tspan></text>
	</g>
</g>
<g fill="none" color="black" stroke="currentColor" stroke-width="1.00" stroke-linecap="butt" stroke-linejoin="miter">
</g>
<g fill="none" color="black" stroke="black" stroke-width="0.50" stroke-linecap="butt" stroke-linejoin="miter">
</g>
<g fill="none" color="gray" stroke="currentColor" stroke-width="0.50" stroke-linecap="butt" stroke-linejoin="miter">
	<path stroke='gray' stroke-dasharray='2,4' class="gridline"  d='M62.2,129.0 L575.0,129.0  '/></g>
<g fill="none" color="gray" stroke="gray" stroke-width="1.00" stroke-linecap="butt" stroke-linejoin="miter">
</g>
<g fill="none" color="black" stroke="currentColor" stroke-width="1.00" stroke-linecap="butt" stroke-linejoin="miter">
	<path stroke='black'  d='M62.2,129.0 L71.2,129.0 M575.0,129.0 L566.0,129.0  '/>	<g transform="translate(53.9,132.9)" stroke="none" fill="black" font-family="Arial" font-size="12.00"  text-anchor="end">
		<text><tspan font-family="Arial" >100 M</tspan></text>
	</g>
</g>
<g fill="none" color="black" stroke="currentColor" stroke-width="1.00" stroke-linecap="butt" stroke-linejoin="miter">
</g>
<g fill="none" color="black" stroke="black" stroke-width="0.50" stroke-linecap="butt" stroke-linejoin="miter">
</g>
<g fill="none" color="gray" stroke="currentColor" stroke-width="0.50" stroke-linecap="butt" stroke-linejoin="miter">
	<path stroke='gray' stroke-dasharray='2,4' class="gridline"  d='M62.2,91.6 L575.0,91.6  '/></g>
<g fill="none" color="gray" stroke="gray" stroke-width="1.00" stroke-linecap="butt" stroke-linejoin="miter">
</g>
<g fill="none" color="black" stroke="currentColor" stroke-width="1.00" stroke-linecap="butt" stroke-linejoin="miter">
	<path stroke='black'  d='M62.2,91.6 L71.2,91.6 M575.0,91.6 L566.0,91.6  '/>	<g transform="translate(53.9,95.5)" stroke="none" fill="black" font-family="Arial" font-size="12.00"  text-anchor="end">
		<text><tspan font-family="Arial" >1 G</tspan></text>
	</g>
</g>
<g fill="none" color="black" stroke="currentColor" stroke-width="1.00" stroke-linecap="butt" stroke-linejoin="miter">
</g>
<g fill="none" color="black" stroke="black" stroke-width="0.50" stroke-linecap="butt" stroke-linejoin="miter">
</g>
<g fill="none" color="gray" stroke="currentColor" stroke-width="0.50" stroke-linecap="butt" stroke-linejoin="miter">
	<path stroke='gray' stroke-dasharray='2,4' class="gridline"  d='M62.2,54.1 L575.0,54.1  '/></g>
<g fill="none" color="gray" stroke="gray" stroke-width="1.00" stroke-linecap="butt" stroke-linejoin="miter">
</g>
<g fill="none" color="black" stroke="currentColor" stroke-width="1.00" stroke-linecap="butt" stroke-linejoin="miter">
	<path stroke='black'  d='M62.2,54.1 L71.2,54.1 M575.0,54.1 L566.0,54.1  '/>	<g transform="translate(53.9,58.0)" stroke="none" fill="black" font-family="Arial" font-size="12.00"  text-anchor="end">
		<text><tspan font-family="Arial" >10 G</tspan></text>
	</g>
</g>
<g fill="none" color="black" stroke="currentColor" stroke-width="1.00" stroke-linecap="butt" stroke-linejoin="miter">
</g>
<g fill="none" color="black" stroke="black" stroke-width="0.50" stroke-linecap="butt" stroke-linejoin="miter">
</g>
<g fill="none" color="gray" stroke="currentColor" stroke-width="0.50" stroke-linecap="butt" stroke-linejoin="miter">
	<path stroke='gray' stroke-dasharray='2,4' class="gridline"  d='M62.2,428.8 L62.2,54.1  '/></g>
<g fill="none" color="gray" stroke="gray" stroke-width="1.00" stroke-linecap="butt" stroke-linejoin="miter">
</g>
<g fill="none" color="black" stroke="currentColor" stroke-width="1.00" stroke-linecap="butt" stroke-linejoin="miter">
	<path stroke='black'  d='M62.2,428.8 L62.2,419.8 M62.2,54.1 L62.2,63.1  '/>	<g transform="translate(66.1,437.1) rotate(270)" stroke="none" fill="black" font-family="Arial" font-size="12.00"  text-anchor="end">
		<text><tspan font-family="Arial" >1964</tspan></text>
	</g>
</g>
<g fill="none" color="black" stroke="currentColor" stroke-width="1.00" stroke-linecap="butt" stroke-linejoin="miter">
	<path stroke='black'  d='M70.8,428.8 L70.8,424.3 M70.8,54.1 L70.8,58.6 M79.3,428.8 L79.3,424.3 M79.3,54.1 L79.3,58.6
		M87.8,428.8 L87.8,424.3 M87.8,54.1 L87.8,58.6 M96.4,428.8 L96.4,424.3 M96.4,54.1 L96.4,58.6
		M105.0,428.8 L105.0,424.3 M105.0,54.1 L105.0,58.6  '/></g>
<g fill="none" color="black" stroke="black" stroke-width="0.50" stroke-linecap="butt" stroke-linejoin="miter">
</g>
<g fill="none" color="gray" stroke="currentColor" stroke-width="0.50" stroke-linecap="butt" stroke-linejoin="miter">
	<path stroke='gray' stroke-dasharray='2,4' class="gridline"  d='M113.5,428.8 L113.5,54.1  '/></g>
<g fill="none" color="gray" stroke="gray" stroke-width="1.00" stroke-linecap="butt" stroke-linejoin="miter">
</g>
<g fill="none" color="black" stroke="currentColor" stroke-width="1.00" stroke-linecap="butt" stroke-linejoin="miter">
	<path stroke='black'  d='M113.5,428.8 L113.5,419.8 M113.5,54.1 L113.5,63.1  '/>	<g transform="translate(117.4,437.1) rotate(270)" stroke="none" fill="black" font-family="Arial" font-size="12.00"  text-anchor="end">
		<text><tspan font-family="Arial" >1970</tspan></text>
	</g>
</g>
<g fill="none" color="black" stroke="currentColor" stroke-width="1.00" stroke-linecap="butt" stroke-linejoin="miter">
	<path stroke='black'  d='M122.0,428.8 L122.0,424.3 M122.0,54.1 L122.0,58.6 M130.6,428.8 L130.6,424.3 M130.6,54.1 L130.6,58.6
		M139.1,428.8 L139.1,424.3 M139.1,54.1 L139.1,58.6 M147.7,428.8 L147.7,424.3 M147.7,54.1 L147.7,58.6
		M156.2,428.8 L156.2,424.3 M156.2,54.1 L156.2,58.6  '/></g>
<g fill="none" color="black" stroke="black" stroke-width="0.50" stroke-linecap="butt" stroke-linejoin="miter">
</g>
<g fill="none" color="gray" stroke="currentColor" stroke-width="0.50" stroke-linecap="butt" stroke-linejoin="miter">
	<path stroke='gray' stroke-dasharray='2,4' class="gridline"  d='M164.8,428.8 L164.8,54.1  '/></g>
<g fill="none" color="gray" stroke="gray" stroke-width="1.00" stroke-linecap="butt" stroke-linejoin="miter">
</g>
<g fill="none" color="black" stroke="currentColor" stroke-width="1.00" stroke-linecap="butt" stroke-linejoin="miter">
	<path stroke='black'  d='M164.8,428.8 L164.8,419.8 M164.8,54.1 L164.8,63.1  '/>	<g transform="translate(168.7,437.1) rotate(270)" stroke="none" fill="black" font-family="Arial" font-size="12.00"  text-anchor="end">
		<text><tspan font-family="Arial" >1976</tspan></text>
	</g>
</g>
<g fill="none" color="black" stroke="currentColor" stroke-width="1.00" stroke-linecap="butt" stroke-linejoin="miter">
	<path stroke='black'  d='M173.3,428.8 L173.3,424.3 M173.3,54.1 L173.3,58.6 M181.9,428.8 L181.9,424.3 M181.9,54.1 L181.9,58.6
		M190.4,428.8 L190.4,424.3 M190.4,54.1 L190.4,58.6 M198.9,428.8 L198.9,424.3 M198.9,54.1 L198.9,58.6
		M207.5,428.8 L207.5,424.3 M207.5,54.1 L207.5,58.6  '/></g>
<g fill="none" color="black" stroke="black" stroke-width="0.50" stroke-linecap="butt" stroke-linejoin="miter">
</g>
<g fill="none" color="gray" stroke="currentColor" stroke-width="0.50" stroke-linecap="butt" stroke-linejoin="miter">
	<path stroke='gray' stroke-dasharray='2,4' class="gridline"  d='M216.0,428.8 L216.0,54.1  '/></g>
<g fill="none" color="gray" stroke="gray" stroke-width="1.00" stroke-linecap="butt" stroke-linejoin="miter">
</g>
<g fill="none" color="black" stroke="currentColor" stroke-width="1.00" stroke-linecap="butt" stroke-linejoin="miter">
	<path stroke='black'  d='M216.0,428.8 L216.0,419.8 M216.0,54.1 L216.0,63.1  '/>	<g transform="translate(219.9,437.1) rotate(270)" stroke="none" fill="black" font-family="Arial" font-size="12.00"  text-anchor="end">
		<text><tspan font-family="Arial" >1982</tspan></text>
	</g>
</g>
<g fill="none" color="black" stroke="currentColor" stroke-width="1.00" stroke-linecap="butt" stroke-linejoin="miter">
	<path stroke='black'  d='M224.6,428.8 L224.6,424.3 M224.6,54.1 L224.6,58.6 M233.1,428.8 L233.1,424.3 M233.1,54.1 L233.1,58.6
		M241.7,428.8 L241.7,424.3 M241.7,54.1 L241.7,58.6 M250.2,428.8 L250.2,424.3 M250.2,54.1 L250.2,58.6
		M258.8,428.8 L258.8,424.3 M258.8,54.1 L258.8,58.6  '/></g>
<g fill="none" color="black" stroke="black" stroke-width="0.50" stroke-linecap="butt" stroke-linejoin="miter">
</g>
<g fill="none" color="gray" stroke="currentColor" stroke-width="0.50" stroke-linecap="butt" stroke-linejoin="miter">
	<path stroke='gray' stroke-dasharray='2,4' class="gridline"  d='M267.3,428.8 L267.3,54.1  '/></g>
<g fill="none" color="gray" stroke="gray" stroke-width="1.00" stroke-linecap="butt" stroke-linejoin="miter">
</g>
<g fill="none" color="black" stroke="currentColor" stroke-width="1.00" stroke-linecap="butt" stroke-linejoin="miter">
	<path stroke='black'  d='M267.3,428.8 L267.3,419.8 M267.3,54.1 L267.3,63.1  '/>	<g transform="translate(271.2,437.1) rotate(270)" stroke="none" fill="black" font-family="Arial" font-size="12.00"  text-anchor="end">
		<text><tspan font-family="Arial" >1988</tspan></text>
	</g>
</g>
<g fill="none" color="black" stroke="currentColor" stroke-width="1.00" stroke-linecap="butt" stroke-linejoin="miter">
	<path stroke='black'  d='M275.9,428.8 L275.9,424.3 M275.9,54.1 L275.9,58.6 M284.4,428.8 L284.4,424.3 M284.4,54.1 L284.4,58.6
		M293.0,428.8 L293.0,424.3 M293.0,54.1 L293.0,58.6 M301.5,428.8 L301.5,424.3 M301.5,54.1 L301.5,58.6
		M310.1,428.8 L310.1,424.3 M310.1,54.1 L310.1,58.6  '/></g>
<g fill="none" color="black" stroke="black" stroke-width="0.50" stroke-linecap="butt" stroke-linejoin="miter">
</g>
<g fill="none" color="gray" stroke="currentColor" stroke-width="0.50" stroke-linecap="butt" stroke-linejoin="miter">
	<path stroke='gray' stroke-dasharray='2,4' class="gridline"  d='M318.6,428.8 L318.6,54.1  '/></g>
<g fill="none" color="gray" stroke="gray" stroke-width="1.00" stroke-linecap="butt" stroke-linejoin="miter">
</g>
<g fill="none" color="black" stroke="currentColor" stroke-width="1.00" stroke-linecap="butt" stroke-linejoin="miter">
	<path stroke='black'  d='M318.6,428.8 L318.6,419.8 M318.6,54.1 L318.6,63.1  '/>	<g transform="translate(322.5,437.1) rotate(270)" stroke="none" fill="black" font-family="Arial" font-size="12.00"  text-anchor="end">
		<text><tspan font-family="Arial" >1994</tspan></text>
	</g>
</g>
<g fill="none" color="black" stroke="currentColor" stroke-width="1.00" stroke-linecap="butt" stroke-linejoin="miter">
	<path stroke='black'  d='M327.1,428.8 L327.1,424.3 M327.1,54.1 L327.1,58.6 M335.7,428.8 L335.7,424.3 M335.7,54.1 L335.7,58.6
		M344.3,428.8 L344.3,424.3 M344.3,54.1 L344.3,58.6 M352.8,428.8 L352.8,424.3 M352.8,54.1 L352.8,58.6
		M361.3,428.8 L361.3,424.3 M361.3,54.1 L361.3,58.6  '/></g>
<g fill="none" color="black" stroke="black" stroke-width="0.50" stroke-linecap="butt" stroke-linejoin="miter">
</g>
<g fill="none" color="gray" stroke="currentColor" stroke-width="0.50" stroke-linecap="butt" stroke-linejoin="miter">
	<path stroke='gray' stroke-dasharray='2,4' class="gridline"  d='M369.9,428.8 L369.9,54.1  '/></g>
<g fill="none" color="gray" stroke="gray" stroke-width="1.00" stroke-linecap="butt" stroke-linejoin="miter">
</g>
<g fill="none" color="black" stroke="currentColor" stroke-width="1.00" stroke-linecap="butt" stroke-linejoin="miter">
	<path stroke='black'  d='M369.9,428.8 L369.9,419.8 M369.9,54.1 L369.9,63.1  '/>	<g transform="translate(373.8,437.1) rotate(270)" stroke="none" fill="black" font-family="Arial" font-size="12.00"  text-anchor="end">
		<text><tspan font-family="Arial" >2000</tspan></text>
	</g>
</g>
<g fill="none" color="black" stroke="currentColor" stroke-width="1.00" stroke-linecap="butt" stroke-linejoin="miter">
	<path stroke='black'  d='M378.5,428.8 L378.5,424.3 M378.5,54.1 L378.5,58.6 M387.0,428.8 L387.0,424.3 M387.0,54.1 L387.0,58.6
		M395.5,428.8 L395.5,424.3 M395.5,54.1 L395.5,58.6 M404.1,428.8 L404.1,424.3 M404.1,54.1 L404.1,58.6
		M412.6,428.8 L412.6,424.3 M412.6,54.1 L412.6,58.6  '/></g>
<g fill="none" color="black" stroke="black" stroke-width="0.50" stroke-linecap="butt" stroke-linejoin="miter">
</g>
<g fill="none" color="gray" stroke="currentColor" stroke-width="0.50" stroke-linecap="butt" stroke-linejoin="miter">
	<path stroke='gray' stroke-dasharray='2,4' class="gridline"  d='M421.2,428.8 L421.2,54.1  '/></g>
<g fill="none" color="gray" stroke="gray" stroke-width="1.00" stroke-linecap="butt" stroke-linejoin="miter">
</g>
<g fill="none" color="black" stroke="currentColor" stroke-width="1.00" stroke-linecap="butt" stroke-linejoin="miter">
	<path stroke='black'  d='M421.2,428.8 L421.2,419.8 M421.2,54.1 L421.2,63.1  '/>	<g transform="translate(425.1,437.1) rotate(270)" stroke="none" fill="black" font-family="Arial" font-size="12.00"  text-anchor="end">
		<text><tspan font-family="Arial" >2006</tspan></text>
	</g>
</g>
<g fill="none" color="black" stroke="currentColor" stroke-width="1.00" stroke-linecap="butt" stroke-linejoin="miter">
	<path stroke='black'  d='M429.7,428.8 L429.7,424.3 M429.7,54.1 L429.7,58.6 M438.3,428.8 L438.3,424.3 M438.3,54.1 L438.3,58.6
		M446.8,428.8 L446.8,424.3 M446.8,54.1 L446.8,58.6 M455.3,428.8 L455.3,424.3 M455.3,54.1 L455.3,58.6
		M463.9,428.8 L463.9,424.3 M463.9,54.1 L463.9,58.6  '/></g>
<g fill="none" color="black" stroke="black" stroke-width="0.50" stroke-linecap="butt" stroke-linejoin="miter">
</g>
<g fill="none" color="gray" stroke="currentColor" stroke-width="0.50" stroke-linecap="butt" stroke-linejoin="miter">
	<path stroke='gray' stroke-dasharray='2,4' class="gridline"  d='M472.4,428.8 L472.4,54.1  '/></g>
<g fill="none" color="gray" stroke="gray" stroke-width="1.00" stroke-linecap="butt" stroke-linejoin="miter">
</g>
<g fill="none" color="black" stroke="currentColor" stroke-width="1.00" stroke-linecap="butt" stroke-linejoin="miter">
	<path stroke='black'  d='M472.4,428.8 L472.4,419.8 M472.4,54.1 L472.4,63.1  '/>	<g transform="translate(476.3,437.1) rotate(270)" stroke="none" fill="black" font-family="Arial" font-size="12.00"  text-anchor="end">
		<text><tspan font-family="Arial" >2012</tspan></text>
	</g>
</g>
<g fill="none" color="black" stroke="currentColor" stroke-width="1.00" stroke-linecap="butt" stroke-linejoin="miter">
	<path stroke='black'  d='M481.0,428.8 L481.0,424.3 M481.0,54.1 L481.0,58.6 M489.5,428.8 L489.5,424.3 M489.5,54.1 L489.5,58.6
		M498.1,428.8 L498.1,424.3 M498.1,54.1 L498.1,58.6 M506.6,428.8 L506.6,424.3 M506.6,54.1 L506.6,58.6
		M515.2,428.8 L515.2,424.3 M515.2,54.1 L515.2,58.6  '/></g>
<g fill="none" color="black" stroke="black" stroke-width="0.50" stroke-linecap="butt" stroke-linejoin="miter">
</g>
<g fill="none" color="gray" stroke="currentColor" stroke-width="0.50" stroke-linecap="butt" stroke-linejoin="miter">
	<path stroke='gray' stroke-dasharray='2,4' class="gridline"  d='M523.7,428.8 L523.7,54.1  '/></g>
<g fill="none" color="gray" stroke="gray" stroke-width="1.00" stroke-linecap="butt" stroke-linejoin="miter">
</g>
<g fill="none" color="black" stroke="currentColor" stroke-width="1.00" stroke-linecap="butt" stroke-linejoin="miter">
	<path stroke='black'  d='M523.7,428.8 L523.7,419.8 M523.7,54.1 L523.7,63.1  '/>	<g transform="translate(527.6,437.1) rotate(270)" stroke="none" fill="black" font-family="Arial" font-size="12.00"  text-anchor="end">
		<text><tspan font-family="Arial" >2018</tspan></text>
	</g>
</g>
<g fill="none" color="black" stroke="currentColor" stroke-width="1.00" stroke-linecap="butt" stroke-linejoin="miter">
	<path stroke='black'  d='M532.3,428.8 L532.3,424.3 M532.3,54.1 L532.3,58.6 M540.8,428.8 L540.8,424.3 M540.8,54.1 L540.8,58.6
		M549.4,428.8 L549.4,424.3 M549.4,54.1 L549.4,58.6 M557.9,428.8 L557.9,424.3 M557.9,54.1 L557.9,58.6
		M566.5,428.8 L566.5,424.3 M566.5,54.1 L566.5,58.6  '/></g>
<g fill="none" color="black" stroke="black" stroke-width="0.50" stroke-linecap="butt" stroke-linejoin="miter">
</g>
<g fill="none" color="gray" stroke="currentColor" stroke-width="0.50" stroke-linecap="butt" stroke-linejoin="miter">
	<path stroke='gray' stroke-dasharray='2,4' class="gridline"  d='M575.0,428.8 L575.0,54.1  '/></g>
<g fill="none" color="gray" stroke="gray" stroke-width="1.00" stroke-linecap="butt" stroke-linejoin="miter">
</g>
<g fill="none" color="black" stroke="currentColor" stroke-width="1.00" stroke-linecap="butt" stroke-linejoin="miter">
	<path stroke='black'  d='M575.0,428.8 L575.0,419.8 M575.0,54.1 L575.0,63.1  '/>	<g transform="translate(578.9,437.1) rotate(270)" stroke="none" fill="black" font-family="Arial" font-size="12.00"  text-anchor="end">
		<text><tspan font-family="Arial" >2024</tspan></text>
	</g>
</g>
<g fill="none" color="black" stroke="currentColor" stroke-width="1.00" stroke-linecap="butt" stroke-linejoin="miter">
</g>
<g fill="none" color="black" stroke="currentColor" stroke-width="1.00" stroke-linecap="butt" stroke-linejoin="miter">
	<path stroke='black'  d='M62.2,54.1 L62.2,428.8 L575.0,428.8 L575.0,54.1 L62.2,54.1 Z  '/></g>
<g fill="none" color="black" stroke="currentColor" stroke-width="1.00" stroke-linecap="butt" stroke-linejoin="miter">
	<g transform="translate(318.6,31.0)" stroke="none" fill="black" font-family="Arial" font-size="12.00"  text-anchor="middle">
		<text><tspan font-family="Arial" >Internet Hosts Count</tspan></text>
	</g>
</g>
	<g id="gnuplot_plot_1" ><title>'InternetHostCount.csv' u 1:2</title>
<g fill="none" color="black" stroke="currentColor" stroke-width="1.00" stroke-linecap="butt" stroke-linejoin="miter">
	<path stroke='rgb(148,   0, 211)'  d='M111.3,417.5 L112.1,410.9 L112.8,406.2 L122.0,377.8 L130.6,368.8 L173.3,353.9 L212.5,341.6 L218.8,340.0
		L229.5,325.8 L239.5,316.0 L248.1,305.4 L251.0,302.8 L257.3,289.9 L266.6,262.1 L271.6,259.5 L273.7,250.9
		L275.9,245.1 L280.1,237.2 L282.3,233.9 L290.8,222.9 L293.0,219.9 L297.2,214.2 L299.3,211.8 L301.5,209.2
		L303.6,205.9 L305.8,204.1 L307.9,201.9 L310.1,199.5 L312.2,197.5 L314.3,194.6 L316.4,192.3 L318.6,191.0
		L322.8,185.0 L325.0,182.0 L327.1,175.2 L331.4,169.7 L335.7,160.6 L339.9,158.1 L344.2,153.8 L348.5,150.9
		L352.8,148.8 L357.0,145.3 L361.3,142.7 L365.6,138.4 L369.9,134.3 L374.1,130.2 L378.4,127.6 L382.7,125.3
		L387.0,122.7 L391.2,121.2 L395.5,120.2 L404.1,115.3 L408.3,112.0 L412.6,110.2 L416.9,108.5 L421.2,106.7
		L425.4,105.0 L429.7,105.2 L433.9,103.2 L438.2,101.5 L442.5,100.7 L446.8,99.2 L451.0,97.8 L455.3,96.6
		L459.6,95.8 L463.9,94.8 L468.1,94.2 L472.4,93.5 L476.7,93.1 L481.0,92.2 L485.2,91.6 L489.5,91.4
		L493.8,91.1 L498.1,91.4 L506.6,90.8 L515.2,90.6 L519.4,90.4 L523.7,91.5 L528.0,91.3 L532.3,91.4
		 '/>	<use xlink:href='#gpPt2' transform='translate(111.3,417.5) scale(4.50)' color='rgb(148,   0, 211)'/>
	<use xlink:href='#gpPt2' transform='translate(112.1,410.9) scale(4.50)' color='rgb(148,   0, 211)'/>
	<use xlink:href='#gpPt2' transform='translate(112.8,406.2) scale(4.50)' color='rgb(148,   0, 211)'/>
	<use xlink:href='#gpPt2' transform='translate(122.0,377.8) scale(4.50)' color='rgb(148,   0, 211)'/>
	<use xlink:href='#gpPt2' transform='translate(130.6,368.8) scale(4.50)' color='rgb(148,   0, 211)'/>
	<use xlink:href='#gpPt2' transform='translate(173.3,353.9) scale(4.50)' color='rgb(148,   0, 211)'/>
	<use xlink:href='#gpPt2' transform='translate(212.5,341.6) scale(4.50)' color='rgb(148,   0, 211)'/>
	<use xlink:href='#gpPt2' transform='translate(218.8,340.0) scale(4.50)' color='rgb(148,   0, 211)'/>
	<use xlink:href='#gpPt2' transform='translate(229.5,325.8) scale(4.50)' color='rgb(148,   0, 211)'/>
	<use xlink:href='#gpPt2' transform='translate(239.5,316.0) scale(4.50)' color='rgb(148,   0, 211)'/>
	<use xlink:href='#gpPt2' transform='translate(248.1,305.4) scale(4.50)' color='rgb(148,   0, 211)'/>
	<use xlink:href='#gpPt2' transform='translate(251.0,302.8) scale(4.50)' color='rgb(148,   0, 211)'/>
	<use xlink:href='#gpPt2' transform='translate(257.3,289.9) scale(4.50)' color='rgb(148,   0, 211)'/>
	<use xlink:href='#gpPt2' transform='translate(266.6,262.1) scale(4.50)' color='rgb(148,   0, 211)'/>
	<use xlink:href='#gpPt2' transform='translate(271.6,259.5) scale(4.50)' color='rgb(148,   0, 211)'/>
	<use xlink:href='#gpPt2' transform='translate(273.7,250.9) scale(4.50)' color='rgb(148,   0, 211)'/>
	<use xlink:href='#gpPt2' transform='translate(275.9,245.1) scale(4.50)' color='rgb(148,   0, 211)'/>
	<use xlink:href='#gpPt2' transform='translate(280.1,237.2) scale(4.50)' color='rgb(148,   0, 211)'/>
	<use xlink:href='#gpPt2' transform='translate(282.3,233.9) scale(4.50)' color='rgb(148,   0, 211)'/>
	<use xlink:href='#gpPt2' transform='translate(290.8,222.9) scale(4.50)' color='rgb(148,   0, 211)'/>
	<use xlink:href='#gpPt2' transform='translate(293.0,219.9) scale(4.50)' color='rgb(148,   0, 211)'/>
	<use xlink:href='#gpPt2' transform='translate(297.2,214.2) scale(4.50)' color='rgb(148,   0, 211)'/>
	<use xlink:href='#gpPt2' transform='translate(299.3,211.8) scale(4.50)' color='rgb(148,   0, 211)'/>
	<use xlink:href='#gpPt2' transform='translate(301.5,209.2) scale(4.50)' color='rgb(148,   0, 211)'/>
	<use xlink:href='#gpPt2' transform='translate(303.6,205.9) scale(4.50)' color='rgb(148,   0, 211)'/>
	<use xlink:href='#gpPt2' transform='translate(305.8,204.1) scale(4.50)' color='rgb(148,   0, 211)'/>
	<use xlink:href='#gpPt2' transform='translate(307.9,201.9) scale(4.50)' color='rgb(148,   0, 211)'/>
	<use xlink:href='#gpPt2' transform='translate(310.1,199.5) scale(4.50)' color='rgb(148,   0, 211)'/>
	<use xlink:href='#gpPt2' transform='translate(312.2,197.5) scale(4.50)' color='rgb(148,   0, 211)'/>
	<use xlink:href='#gpPt2' transform='translate(314.3,194.6) scale(4.50)' color='rgb(148,   0, 211)'/>
	<use xlink:href='#gpPt2' transform='translate(316.4,192.3) scale(4.50)' color='rgb(148,   0, 211)'/>
	<use xlink:href='#gpPt2' transform='translate(318.6,191.0) scale(4.50)' color='rgb(148,   0, 211)'/>
	<use xlink:href='#gpPt2' transform='translate(322.8,185.0) scale(4.50)' color='rgb(148,   0, 211)'/>
	<use xlink:href='#gpPt2' transform='translate(325.0,182.0) scale(4.50)' color='rgb(148,   0, 211)'/>
	<use xlink:href='#gpPt2' transform='translate(327.1,175.2) scale(4.50)' color='rgb(148,   0, 211)'/>
	<use xlink:href='#gpPt2' transform='translate(331.4,169.7) scale(4.50)' color='rgb(148,   0, 211)'/>
	<use xlink:href='#gpPt2' transform='translate(335.7,160.6) scale(4.50)' color='rgb(148,   0, 211)'/>
	<use xlink:href='#gpPt2' transform='translate(339.9,158.1) scale(4.50)' color='rgb(148,   0, 211)'/>
	<use xlink:href='#gpPt2' transform='translate(344.2,153.8) scale(4.50)' color='rgb(148,   0, 211)'/>
	<use xlink:href='#gpPt2' transform='translate(348.5,150.9) scale(4.50)' color='rgb(148,   0, 211)'/>
	<use xlink:href='#gpPt2' transform='translate(352.8,148.8) scale(4.50)' color='rgb(148,   0, 211)'/>
	<use xlink:href='#gpPt2' transform='translate(357.0,145.3) scale(4.50)' color='rgb(148,   0, 211)'/>
	<use xlink:href='#gpPt2' transform='translate(361.3,142.7) scale(4.50)' color='rgb(148,   0, 211)'/>
	<use xlink:href='#gpPt2' transform='translate(365.6,138.4) scale(4.50)' color='rgb(148,   0, 211)'/>
	<use xlink:href='#gpPt2' transform='translate(369.9,134.3) scale(4.50)' color='rgb(148,   0, 211)'/>
	<use xlink:href='#gpPt2' transform='translate(374.1,130.2) scale(4.50)' color='rgb(148,   0, 211)'/>
	<use xlink:href='#gpPt2' transform='translate(378.4,127.6) scale(4.50)' color='rgb(148,   0, 211)'/>
	<use xlink:href='#gpPt2' transform='translate(382.7,125.3) scale(4.50)' color='rgb(148,   0, 211)'/>
	<use xlink:href='#gpPt2' transform='translate(387.0,122.7) scale(4.50)' color='rgb(148,   0, 211)'/>
	<use xlink:href='#gpPt2' transform='translate(391.2,121.2) scale(4.50)' color='rgb(148,   0, 211)'/>
	<use xlink:href='#gpPt2' transform='translate(395.5,120.2) scale(4.50)' color='rgb(148,   0, 211)'/>
	<use xlink:href='#gpPt2' transform='translate(404.1,115.3) scale(4.50)' color='rgb(148,   0, 211)'/>
	<use xlink:href='#gpPt2' transform='translate(408.3,112.0) scale(4.50)' color='rgb(148,   0, 211)'/>
	<use xlink:href='#gpPt2' transform='translate(412.6,110.2) scale(4.50)' color='rgb(148,   0, 211)'/>
	<use xlink:href='#gpPt2' transform='translate(416.9,108.5) scale(4.50)' color='rgb(148,   0, 211)'/>
	<use xlink:href='#gpPt2' transform='translate(421.2,106.7) scale(4.50)' color='rgb(148,   0, 211)'/>
	<use xlink:href='#gpPt2' transform='translate(425.4,105.0) scale(4.50)' color='rgb(148,   0, 211)'/>
	<use xlink:href='#gpPt2' transform='translate(429.7,105.2) scale(4.50)' color='rgb(148,   0, 211)'/>
	<use xlink:href='#gpPt2' transform='translate(433.9,103.2) scale(4.50)' color='rgb(148,   0, 211)'/>
	<use xlink:href='#gpPt2' transform='translate(438.2,101.5) scale(4.50)' color='rgb(148,   0, 211)'/>
	<use xlink:href='#gpPt2' transform='translate(442.5,100.7) scale(4.50)' color='rgb(148,   0, 211)'/>
	<use xlink:href='#gpPt2' transform='translate(446.8,99.2) scale(4.50)' color='rgb(148,   0, 211)'/>
	<use xlink:href='#gpPt2' transform='translate(451.0,97.8) scale(4.50)' color='rgb(148,   0, 211)'/>
	<use xlink:href='#gpPt2' transform='translate(455.3,96.6) scale(4.50)' color='rgb(148,   0, 211)'/>
	<use xlink:href='#gpPt2' transform='translate(459.6,95.8) scale(4.50)' color='rgb(148,   0, 211)'/>
	<use xlink:href='#gpPt2' transform='translate(463.9,94.8) scale(4.50)' color='rgb(148,   0, 211)'/>
	<use xlink:href='#gpPt2' transform='translate(468.1,94.2) scale(4.50)' color='rgb(148,   0, 211)'/>
	<use xlink:href='#gpPt2' transform='translate(472.4,93.5) scale(4.50)' color='rgb(148,   0, 211)'/>
	<use xlink:href='#gpPt2' transform='translate(476.7,93.1) scale(4.50)' color='rgb(148,   0, 211)'/>
	<use xlink:href='#gpPt2' transform='translate(481.0,92.2) scale(4.50)' color='rgb(148,   0, 211)'/>
	<use xlink:href='#gpPt2' transform='translate(485.2,91.6) scale(4.50)' color='rgb(148,   0, 211)'/>
	<use xlink:href='#gpPt2' transform='translate(489.5,91.4) scale(4.50)' color='rgb(148,   0, 211)'/>
	<use xlink:href='#gpPt2' transform='translate(493.8,91.1) scale(4.50)' color='rgb(148,   0, 211)'/>
	<use xlink:href='#gpPt2' transform='translate(498.1,91.4) scale(4.50)' color='rgb(148,   0, 211)'/>
	<use xlink:href='#gpPt2' transform='translate(506.6,90.8) scale(4.50)' color='rgb(148,   0, 211)'/>
	<use xlink:href='#gpPt2' transform='translate(515.2,90.6) scale(4.50)' color='rgb(148,   0, 211)'/>
	<use xlink:href='#gpPt2' transform='translate(519.4,90.4) scale(4.50)' color='rgb(148,   0, 211)'/>
	<use xlink:href='#gpPt2' transform='translate(523.7,91.5) scale(4.50)' color='rgb(148,   0, 211)'/>
	<use xlink:href='#gpPt2' transform='translate(528.0,91.3) scale(4.50)' color='rgb(148,   0, 211)'/>
	<use xlink:href='#gpPt2' transform='translate(532.3,91.4) scale(4.50)' color='rgb(148,   0, 211)'/>
</g>
	</g>
<g fill="none" color="#FFFFFF" stroke="rgb(148,   0, 211)" stroke-width="2.00" stroke-linecap="butt" stroke-linejoin="miter">
</g>
<g fill="none" color="black" stroke="currentColor" stroke-width="2.00" stroke-linecap="butt" stroke-linejoin="miter">
</g>
<g fill="none" color="black" stroke="black" stroke-width="1.00" stroke-linecap="butt" stroke-linejoin="miter">
</g>
<g fill="none" color="black" stroke="currentColor" stroke-width="1.00" stroke-linecap="butt" stroke-linejoin="miter">
	<path stroke='black'  d='M62.2,54.1 L62.2,428.8 L575.0,428.8 L575.0,54.1 L62.2,54.1 Z  '/></g>
<g fill="none" color="black" stroke="currentColor" stroke-width="1.00" stroke-linecap="butt" stroke-linejoin="miter">
</g>
</g>
</svg>

