#FIG 3.2  Produced by xfig version 3.2.5c
Portrait
Center
Metric
A4      
100.00
Single
-2
1200 2
2 2 0 0 0 0 52 -1 20 0.000 0 0 -1 0 0 5
	 270 270 4140 270 4140 495 270 495 270 270
2 2 0 1 -1 -1 50 0 -1 0.000 0 0 0 0 0 5
	 2070 450 2070 225 225 225 225 450 2070 450
2 1 1 1 -1 -1 50 0 -1 4.000 0 0 -1 0 0 2
	 2070 225 4095 225
2 1 1 1 -1 -1 50 0 -1 4.000 0 0 -1 0 0 2
	 2070 450 4095 450
2 1 0 1 -1 -1 50 0 -1 0.000 0 0 -1 0 0 2
	 1125 225 1125 450
2 2 0 0 0 6 51 -1 38 0.000 0 0 -1 0 0 5
	 225 225 4095 225 4095 450 225 450 225 225
4 0 -1 50 0 16 8 0.0000 4 90 150 2025 180 16\001
4 0 -1 50 0 16 8 0.0000 4 90 75 1125 180 8\001
4 0 -1 50 0 16 8 0.0000 4 90 75 225 180 0\001
4 1 -1 50 0 16 8 0.0000 4 105 300 3150 405 Data\001
4 1 -1 50 0 16 8 0.0000 4 105 225 1575 405 Len\001
4 1 -1 50 0 16 8 0.0000 4 135 315 675 405 Type\001
