#FIG 3.2  Produced by xfig version 3.2.8b
Portrait
Center
Metric
A4
100.00
Single
-2
1200 2
0 32 #c6b797
0 33 #eff8ff
0 34 #dccba6
0 35 #404040
0 36 #808080
0 37 #c0c0c0
0 38 #e0e0e0
0 39 #8e8f8e
0 40 #aaaaaa
0 41 #555555
0 42 #c7c3c7
0 43 #565151
0 44 #8e8e8e
0 45 #d7d7d7
0 46 #85807d
0 47 #d2d2d2
0 48 #3a3a3a
0 49 #4573aa
0 50 #aeaeae
0 51 #7b79a5
0 52 #444444
0 53 #73758c
0 54 #f7f7f7
0 55 #414541
0 56 #635dce
0 57 #bebebe
0 58 #515151
0 59 #e7e3e7
0 60 #000049
0 61 #797979
0 62 #303430
0 63 #414141
0 64 #c7b696
# Desktop computer
6 540 1080 1260 1992
6 599 1095 1209 1654
2 2 0 1 0 38 20 0 20 0.000 2 0 7 0 0 5
	 599 1095 1209 1095 1209 1603 599 1603 599 1095
2 2 0 0 0 35 19 0 22 0.000 1 0 -1 0 0 5
	 1082 1146 1031 1146 1031 1552 1082 1552 1082 1146
2 2 0 0 0 35 19 0 24 0.000 1 0 -1 0 0 5
	 1031 1146 980 1146 980 1552 1031 1552 1031 1146
2 2 0 0 0 35 19 0 26 0.000 1 0 -1 0 0 5
	 980 1146 904 1146 904 1552 980 1552 980 1146
2 2 0 0 0 35 19 0 28 0.000 1 0 -1 0 0 5
	 904 1146 828 1146 828 1552 904 1552 904 1146
2 2 0 0 0 35 19 0 30 0.000 1 0 -1 0 0 5
	 828 1146 777 1146 777 1552 828 1552 828 1146
2 2 0 0 0 35 19 0 33 0.000 1 0 -1 0 0 5
	 777 1146 726 1146 726 1552 777 1552 777 1146
2 2 0 0 0 35 19 0 33 0.000 1 0 -1 0 0 5
	 726 1146 675 1146 675 1552 726 1552 726 1146
2 2 0 1 0 36 20 0 20 0.000 2 0 7 0 0 5
	 777 1603 1031 1603 1031 1628 777 1628 777 1603
2 2 0 1 0 36 20 0 20 0.000 2 0 -1 0 0 5
	 752 1628 1056 1628 1056 1654 752 1654 752 1628
2 2 0 0 0 35 19 0 20 0.000 1 0 7 0 0 5
	 1132 1146 1082 1146 1082 1552 1132 1552 1132 1146
3 5 0 0 0 37 18 0 20 0.000 0 0 0 4
	 650 1146 650 1552 675 1527 675 1171
	 0.000 0.000 0.000 0.000
3 5 0 0 0 7 18 0 20 0.000 0 0 0 5
	 650 1552 675 1527 909 1537 1132 1527 1158 1552
	 0.000 0.000 -1.000 0.000 0.000
3 5 0 0 0 37 18 0 20 0.000 0 0 0 4
	 1158 1146 1158 1552 1132 1527 1132 1171
	 0.000 0.000 0.000 0.000
3 5 0 0 0 36 18 0 20 0.000 0 0 0 5
	 650 1146 675 1171 909 1161 1132 1171 1158 1146
	 0.000 0.000 -1.000 0.000 0.000
-6
6 548 1831 1259 1984
2 3 0 1 0 38 20 0 20 0.000 2 0 7 0 0 7
	 624 1831 1183 1831 1259 1959 1259 1984 548 1984 548 1959
	 624 1831
2 1 0 1 0 37 19 0 20 0.000 2 0 -1 0 0 4
	 548 1959 548 1984 1259 1984 1259 1959
2 3 0 0 0 7 19 0 20 0.000 2 0 -1 0 0 5
	 650 1857 599 1933 1056 1933 1031 1857 650 1857
2 2 0 0 0 36 18 0 20 0.000 2 0 -1 0 0 5
	 599 1933 1056 1933 1056 1942 599 1942 599 1933
2 3 0 0 0 37 18 0 20 0.000 2 0 -1 0 0 9
	 640 1857 599 1933 675 1933 686 1908 668 1908 678 1882
	 662 1882 675 1857 640 1857
2 3 0 0 0 37 18 0 20 0.000 2 0 -1 0 0 10
	 1056 1933 980 1933 980 1907 997 1908 994 1882 1005 1882
	 1009 1882 1004 1857 1036 1857 1056 1933
2 3 0 0 0 7 19 0 20 0.000 2 0 -1 0 0 5
	 1158 1857 1056 1857 1082 1933 1209 1933 1158 1857
2 3 0 0 0 37 18 0 20 0.000 2 0 -1 0 0 7
	 1209 1933 1185 1933 1158 1872 1061 1872 1056 1857 1168 1857
	 1209 1933
2 2 0 0 0 36 18 0 20 0.000 2 0 -1 0 0 5
	 1082 1933 1209 1933 1209 1942 1082 1942 1082 1933
2 3 0 0 0 36 18 0 20 0.000 2 0 -1 0 0 5
	 1082 1933 1081 1943 1056 1864 1056 1857 1082 1933
-6
6 611 1654 1196 1806
6 988 1680 1165 1731
6 988 1680 1165 1731
2 1 0 1 36 -1 19 0 -1 0.000 2 0 -1 0 0 5
	 988 1705 988 1693 1042 1693 1042 1680 1110 1680
2 1 0 1 36 -1 19 0 -1 0.000 2 0 -1 0 0 3
	 1042 1731 1042 1705 1110 1705
2 1 0 1 36 -1 19 0 -1 0.000 2 0 -1 0 0 2
	 1110 1693 1165 1693
2 1 0 1 7 -1 19 0 -1 0.000 2 0 -1 0 0 2
	 1110 1680 1110 1693
2 1 0 1 7 -1 19 0 -1 0.000 2 0 -1 0 0 2
	 988 1705 1042 1705
2 1 0 1 7 -1 19 0 -1 0.000 2 0 -1 0 0 5
	 1042 1731 1110 1731 1110 1705 1165 1705 1165 1693
2 1 0 1 36 -1 19 0 -1 0.000 2 0 -1 0 0 3
	 1124 1731 1152 1731 1152 1718
2 1 0 1 7 -1 19 0 -1 0.000 2 0 -1 0 0 3
	 1124 1731 1124 1718 1152 1718
-6
-6
2 2 0 1 0 35 20 0 20 0.000 2 0 -1 0 0 5
	 611 1806 688 1806 688 1793 611 1793 611 1806
2 2 0 1 0 35 20 0 20 0.000 2 0 -1 0 0 5
	 1120 1806 1196 1806 1196 1793 1120 1793 1120 1806
2 2 0 1 0 38 20 0 20 0.000 2 0 -1 0 0 5
	 611 1654 1196 1654 1196 1794 611 1794 611 1654
-6
-6
# Desktop computer
6 2970 1080 3690 1992
6 3029 1095 3639 1654
2 2 0 1 0 38 20 0 20 0.000 2 0 7 0 0 5
	 3029 1095 3639 1095 3639 1603 3029 1603 3029 1095
2 2 0 0 0 35 19 0 22 0.000 1 0 -1 0 0 5
	 3512 1146 3461 1146 3461 1552 3512 1552 3512 1146
2 2 0 0 0 35 19 0 24 0.000 1 0 -1 0 0 5
	 3461 1146 3410 1146 3410 1552 3461 1552 3461 1146
2 2 0 0 0 35 19 0 26 0.000 1 0 -1 0 0 5
	 3410 1146 3334 1146 3334 1552 3410 1552 3410 1146
2 2 0 0 0 35 19 0 28 0.000 1 0 -1 0 0 5
	 3334 1146 3258 1146 3258 1552 3334 1552 3334 1146
2 2 0 0 0 35 19 0 30 0.000 1 0 -1 0 0 5
	 3258 1146 3207 1146 3207 1552 3258 1552 3258 1146
2 2 0 0 0 35 19 0 33 0.000 1 0 -1 0 0 5
	 3207 1146 3156 1146 3156 1552 3207 1552 3207 1146
2 2 0 0 0 35 19 0 33 0.000 1 0 -1 0 0 5
	 3156 1146 3105 1146 3105 1552 3156 1552 3156 1146
2 2 0 1 0 36 20 0 20 0.000 2 0 7 0 0 5
	 3207 1603 3461 1603 3461 1628 3207 1628 3207 1603
2 2 0 1 0 36 20 0 20 0.000 2 0 -1 0 0 5
	 3182 1628 3486 1628 3486 1654 3182 1654 3182 1628
2 2 0 0 0 35 19 0 20 0.000 1 0 7 0 0 5
	 3562 1146 3512 1146 3512 1552 3562 1552 3562 1146
3 5 0 0 0 37 18 0 20 0.000 0 0 0 4
	 3080 1146 3080 1552 3105 1527 3105 1171
	 0.000 0.000 0.000 0.000
3 5 0 0 0 7 18 0 20 0.000 0 0 0 5
	 3080 1552 3105 1527 3339 1537 3562 1527 3588 1552
	 0.000 0.000 -1.000 0.000 0.000
3 5 0 0 0 37 18 0 20 0.000 0 0 0 4
	 3588 1146 3588 1552 3562 1527 3562 1171
	 0.000 0.000 0.000 0.000
3 5 0 0 0 36 18 0 20 0.000 0 0 0 5
	 3080 1146 3105 1171 3339 1161 3562 1171 3588 1146
	 0.000 0.000 -1.000 0.000 0.000
-6
6 2978 1831 3689 1984
2 3 0 1 0 38 20 0 20 0.000 2 0 7 0 0 7
	 3054 1831 3613 1831 3689 1959 3689 1984 2978 1984 2978 1959
	 3054 1831
2 1 0 1 0 37 19 0 20 0.000 2 0 -1 0 0 4
	 2978 1959 2978 1984 3689 1984 3689 1959
2 3 0 0 0 7 19 0 20 0.000 2 0 -1 0 0 5
	 3080 1857 3029 1933 3486 1933 3461 1857 3080 1857
2 2 0 0 0 36 18 0 20 0.000 2 0 -1 0 0 5
	 3029 1933 3486 1933 3486 1942 3029 1942 3029 1933
2 3 0 0 0 37 18 0 20 0.000 2 0 -1 0 0 9
	 3070 1857 3029 1933 3105 1933 3116 1908 3098 1908 3108 1882
	 3092 1882 3105 1857 3070 1857
2 3 0 0 0 37 18 0 20 0.000 2 0 -1 0 0 10
	 3486 1933 3410 1933 3410 1907 3427 1908 3424 1882 3435 1882
	 3439 1882 3434 1857 3466 1857 3486 1933
2 3 0 0 0 7 19 0 20 0.000 2 0 -1 0 0 5
	 3588 1857 3486 1857 3512 1933 3639 1933 3588 1857
2 3 0 0 0 37 18 0 20 0.000 2 0 -1 0 0 7
	 3639 1933 3615 1933 3588 1872 3491 1872 3486 1857 3598 1857
	 3639 1933
2 2 0 0 0 36 18 0 20 0.000 2 0 -1 0 0 5
	 3512 1933 3639 1933 3639 1942 3512 1942 3512 1933
2 3 0 0 0 36 18 0 20 0.000 2 0 -1 0 0 5
	 3512 1933 3511 1943 3486 1864 3486 1857 3512 1933
-6
6 3041 1654 3626 1806
6 3418 1680 3595 1731
6 3418 1680 3595 1731
2 1 0 1 36 -1 19 0 -1 0.000 2 0 -1 0 0 5
	 3418 1705 3418 1693 3472 1693 3472 1680 3540 1680
2 1 0 1 36 -1 19 0 -1 0.000 2 0 -1 0 0 3
	 3472 1731 3472 1705 3540 1705
2 1 0 1 36 -1 19 0 -1 0.000 2 0 -1 0 0 2
	 3540 1693 3595 1693
2 1 0 1 7 -1 19 0 -1 0.000 2 0 -1 0 0 2
	 3540 1680 3540 1693
2 1 0 1 7 -1 19 0 -1 0.000 2 0 -1 0 0 2
	 3418 1705 3472 1705
2 1 0 1 7 -1 19 0 -1 0.000 2 0 -1 0 0 5
	 3472 1731 3540 1731 3540 1705 3595 1705 3595 1693
2 1 0 1 36 -1 19 0 -1 0.000 2 0 -1 0 0 3
	 3554 1731 3582 1731 3582 1718
2 1 0 1 7 -1 19 0 -1 0.000 2 0 -1 0 0 3
	 3554 1731 3554 1718 3582 1718
-6
-6
2 2 0 1 0 35 20 0 20 0.000 2 0 -1 0 0 5
	 3041 1806 3118 1806 3118 1793 3041 1793 3041 1806
2 2 0 1 0 35 20 0 20 0.000 2 0 -1 0 0 5
	 3550 1806 3626 1806 3626 1793 3550 1793 3550 1806
2 2 0 1 0 38 20 0 20 0.000 2 0 -1 0 0 5
	 3041 1654 3626 1654 3626 1794 3041 1794 3041 1654
-6
-6
2 1 0 1 -1 -1 55 0 -1 0.000 0 0 -1 0 0 2
	 3330 675 3330 1125
2 1 0 1 -1 -1 55 0 -1 0.000 0 0 -1 0 0 2
	 900 675 900 1125
2 1 0 1 -1 -1 55 0 -1 0.000 0 0 -1 0 0 2
	 225 675 4050 675
2 2 0 1 0 0 54 -1 20 0.000 0 0 7 0 0 5
	 1665 810 3195 810 3195 990 1665 990 1665 810
2 2 0 1 0 0 54 -1 20 0.000 0 0 7 0 0 5
	 405 405 1935 405 1935 585 405 585 405 405
2 2 0 0 0 11 53 -1 34 0.000 0 2 7 0 0 5
	 1620 765 3150 765 3150 945 1620 945 1620 765
2 2 0 0 0 11 53 -1 34 0.000 0 2 7 0 0 5
	 360 360 1890 360 1890 540 360 540 360 360
2 1 0 1 0 11 52 -1 -1 0.000 0 2 -1 0 0 4
	 1620 765 1620 945 3150 945 3150 765
2 1 0 1 0 11 52 -1 -1 0.000 0 2 -1 0 0 4
	 360 360 360 540 1890 540 1890 360
3 0 0 3 13 7 51 -1 -1 0.000 2 1 0 8
	1 1 1.00 60.00 120.00
	 3285 1215 3285 900 3285 720 3105 720 1215 720 945 720
	 945 900 945 1080
	 0.000 1.000 1.000 1.000 1.000 1.000 1.000 0.000
3 0 0 3 1 7 51 -1 -1 0.000 2 1 0 5
	1 1 1.00 60.00 120.00
	 855 1125 855 855 855 630 1035 630 3015 630
	 0.000 1.000 1.000 1.000 0.000
3 0 0 3 1 7 51 -1 -1 0.000 2 1 0 5
	1 1 1.00 60.00 120.00
	 855 1125 855 855 855 630 675 630 315 630
	 0.000 1.000 1.000 1.000 0.000
4 1 -1 55 0 4 12 0.0000 0 150 135 2880 1440 B\001
4 1 -1 55 0 4 12 0.0000 0 150 135 1395 1440 A\001
4 0 0 40 -1 16 6 0.0000 4 105 1365 405 495 Eth(A)->Broadcast, IP(B), Eth(B)=?\001
4 0 0 40 -1 16 6 0.0000 4 105 1410 1665 900 Eth(B)->Eth(A), IP(B), Eth(B)\001
4 0 0 30 -1 16 6 0.0000 4 105 1410 1665 900 Eth(B)->Eth(A), IP(A), Eth(A)\001
4 0 0 30 -1 16 6 0.0000 4 105 1725 405 495 Eth(A)->Broadcast, IP(A)=?, Eth(A)\001
