#FIG 3.2  Produced by xfig version 3.2.5c
Portrait
Center
Metric
A4      
100.00
Single
-2
1200 2
0 32 #c6b797
0 33 #eff8ff
0 34 #dccba6
0 35 #404040
0 36 #808080
0 37 #c0c0c0
0 38 #e0e0e0
0 39 #8e8f8e
0 40 #aaaaaa
0 41 #555555
0 42 #c7c3c7
0 43 #565151
0 44 #8e8e8e
0 45 #d7d7d7
0 46 #85807d
0 47 #d2d2d2
0 48 #3a3a3a
0 49 #4573aa
0 50 #aeaeae
0 51 #7b79a5
0 52 #444444
0 53 #73758c
0 54 #f7f7f7
0 55 #414541
0 56 #635dce
0 57 #bebebe
0 58 #515151
0 59 #e7e3e7
0 60 #000049
0 61 #797979
0 62 #303430
0 63 #414141
0 64 #c7b696
# Desktop computer
6 630 0 1170 684
6 674 11 1132 430
2 2 0 1 0 38 20 0 20 0.000 2 0 7 0 0 5
	 674 11 1132 11 1132 392 674 392 674 11
2 2 0 0 0 35 19 0 22 0.000 1 0 -1 0 0 5
	 1036 49 998 49 998 354 1036 354 1036 49
2 2 0 0 0 35 19 0 24 0.000 1 0 -1 0 0 5
	 998 49 960 49 960 354 998 354 998 49
2 2 0 0 0 35 19 0 26 0.000 1 0 -1 0 0 5
	 960 49 903 49 903 354 960 354 960 49
2 2 0 0 0 35 19 0 28 0.000 1 0 -1 0 0 5
	 903 49 846 49 846 354 903 354 903 49
2 2 0 0 0 35 19 0 30 0.000 1 0 -1 0 0 5
	 846 49 808 49 808 354 846 354 846 49
2 2 0 0 0 35 19 0 33 0.000 1 0 -1 0 0 5
	 808 49 769 49 769 354 808 354 808 49
2 2 0 0 0 35 19 0 33 0.000 1 0 -1 0 0 5
	 769 49 731 49 731 354 769 354 769 49
2 2 0 1 0 36 20 0 20 0.000 2 0 7 0 0 5
	 808 392 998 392 998 411 808 411 808 392
2 2 0 1 0 36 20 0 20 0.000 2 0 -1 0 0 5
	 789 411 1017 411 1017 430 789 430 789 411
2 2 0 0 0 35 19 0 20 0.000 1 0 7 0 0 5
	 1074 49 1036 49 1036 354 1074 354 1074 49
3 5 0 0 0 37 18 0 20 0.000 0 0 0 4
	 712 49 712 354 731 335 731 68
	 0.000 0.000 0.000 0.000
3 5 0 0 0 7 18 0 20 0.000 0 0 0 5
	 712 354 731 335 907 343 1074 335 1093 354
	 0.000 0.000 -1.000 0.000 0.000
3 5 0 0 0 37 18 0 20 0.000 0 0 0 4
	 1093 49 1093 354 1074 335 1074 68
	 0.000 0.000 0.000 0.000
3 5 0 0 0 36 18 0 20 0.000 0 0 0 5
	 712 49 731 68 907 61 1074 68 1093 49
	 0.000 0.000 -1.000 0.000 0.000
-6
6 636 563 1169 678
2 3 0 1 0 38 20 0 20 0.000 2 0 7 0 0 7
	 693 563 1112 563 1169 659 1169 678 636 678 636 659
	 693 563
2 1 0 1 0 37 19 0 20 0.000 2 0 -1 0 0 4
	 636 659 636 678 1169 678 1169 659
2 3 0 0 0 7 19 0 20 0.000 2 0 -1 0 0 5
	 712 583 674 640 1017 640 998 583 712 583
2 2 0 0 0 36 18 0 20 0.000 2 0 -1 0 0 5
	 674 640 1017 640 1017 647 674 647 674 640
2 3 0 0 0 37 18 0 20 0.000 2 0 -1 0 0 9
	 705 583 674 640 731 640 739 621 726 621 734 602
	 721 602 731 583 705 583
2 3 0 0 0 37 18 0 20 0.000 2 0 -1 0 0 10
	 1017 640 960 640 960 621 972 621 971 602 979 602
	 982 602 978 583 1002 583 1017 640
2 3 0 0 0 7 19 0 20 0.000 2 0 -1 0 0 5
	 1093 583 1017 583 1036 640 1132 640 1093 583
2 3 0 0 0 37 18 0 20 0.000 2 0 -1 0 0 7
	 1132 640 1114 640 1093 594 1021 594 1017 583 1101 583
	 1132 640
2 2 0 0 0 36 18 0 20 0.000 2 0 -1 0 0 5
	 1036 640 1132 640 1132 646 1036 646 1036 640
2 3 0 0 0 36 18 0 20 0.000 2 0 -1 0 0 5
	 1036 640 1036 647 1017 588 1017 583 1036 640
-6
6 684 430 1122 545
6 966 450 1099 488
6 966 450 1099 488
2 1 0 1 36 -1 19 0 -1 0.000 2 0 -1 0 0 5
	 966 469 966 459 1007 459 1007 450 1058 450
2 1 0 1 36 -1 19 0 -1 0.000 2 0 -1 0 0 3
	 1007 488 1007 469 1058 469
2 1 0 1 36 -1 19 0 -1 0.000 2 0 -1 0 0 2
	 1058 459 1099 459
2 1 0 1 7 -1 19 0 -1 0.000 2 0 -1 0 0 2
	 1058 450 1058 459
2 1 0 1 7 -1 19 0 -1 0.000 2 0 -1 0 0 2
	 966 469 1007 469
2 1 0 1 7 -1 19 0 -1 0.000 2 0 -1 0 0 5
	 1007 488 1058 488 1058 469 1099 469 1099 459
2 1 0 1 36 -1 19 0 -1 0.000 2 0 -1 0 0 3
	 1068 488 1089 488 1089 479
2 1 0 1 7 -1 19 0 -1 0.000 2 0 -1 0 0 3
	 1068 488 1068 479 1089 479
-6
-6
2 2 0 1 0 35 20 0 20 0.000 2 0 -1 0 0 5
	 684 545 741 545 741 535 684 535 684 545
2 2 0 1 0 35 20 0 20 0.000 2 0 -1 0 0 5
	 1065 545 1122 545 1122 535 1065 535 1065 545
2 2 0 1 0 38 20 0 20 0.000 2 0 -1 0 0 5
	 684 430 1122 430 1122 535 684 535 684 430
-6
-6
# Desktop computer
6 4230 0 4770 684
6 4274 11 4732 430
2 2 0 1 0 38 20 0 20 0.000 2 0 7 0 0 5
	 4274 11 4732 11 4732 392 4274 392 4274 11
2 2 0 0 0 35 19 0 22 0.000 1 0 -1 0 0 5
	 4636 49 4598 49 4598 354 4636 354 4636 49
2 2 0 0 0 35 19 0 24 0.000 1 0 -1 0 0 5
	 4598 49 4560 49 4560 354 4598 354 4598 49
2 2 0 0 0 35 19 0 26 0.000 1 0 -1 0 0 5
	 4560 49 4503 49 4503 354 4560 354 4560 49
2 2 0 0 0 35 19 0 28 0.000 1 0 -1 0 0 5
	 4503 49 4446 49 4446 354 4503 354 4503 49
2 2 0 0 0 35 19 0 30 0.000 1 0 -1 0 0 5
	 4446 49 4408 49 4408 354 4446 354 4446 49
2 2 0 0 0 35 19 0 33 0.000 1 0 -1 0 0 5
	 4408 49 4369 49 4369 354 4408 354 4408 49
2 2 0 0 0 35 19 0 33 0.000 1 0 -1 0 0 5
	 4369 49 4331 49 4331 354 4369 354 4369 49
2 2 0 1 0 36 20 0 20 0.000 2 0 7 0 0 5
	 4408 392 4598 392 4598 411 4408 411 4408 392
2 2 0 1 0 36 20 0 20 0.000 2 0 -1 0 0 5
	 4389 411 4617 411 4617 430 4389 430 4389 411
2 2 0 0 0 35 19 0 20 0.000 1 0 7 0 0 5
	 4674 49 4636 49 4636 354 4674 354 4674 49
3 5 0 0 0 37 18 0 20 0.000 0 0 0 4
	 4312 49 4312 354 4331 335 4331 68
	 0.000 0.000 0.000 0.000
3 5 0 0 0 7 18 0 20 0.000 0 0 0 5
	 4312 354 4331 335 4507 343 4674 335 4693 354
	 0.000 0.000 -1.000 0.000 0.000
3 5 0 0 0 37 18 0 20 0.000 0 0 0 4
	 4693 49 4693 354 4674 335 4674 68
	 0.000 0.000 0.000 0.000
3 5 0 0 0 36 18 0 20 0.000 0 0 0 5
	 4312 49 4331 68 4507 61 4674 68 4693 49
	 0.000 0.000 -1.000 0.000 0.000
-6
6 4236 563 4769 678
2 3 0 1 0 38 20 0 20 0.000 2 0 7 0 0 7
	 4293 563 4712 563 4769 659 4769 678 4236 678 4236 659
	 4293 563
2 1 0 1 0 37 19 0 20 0.000 2 0 -1 0 0 4
	 4236 659 4236 678 4769 678 4769 659
2 3 0 0 0 7 19 0 20 0.000 2 0 -1 0 0 5
	 4312 583 4274 640 4617 640 4598 583 4312 583
2 2 0 0 0 36 18 0 20 0.000 2 0 -1 0 0 5
	 4274 640 4617 640 4617 647 4274 647 4274 640
2 3 0 0 0 37 18 0 20 0.000 2 0 -1 0 0 9
	 4305 583 4274 640 4331 640 4339 621 4326 621 4334 602
	 4321 602 4331 583 4305 583
2 3 0 0 0 37 18 0 20 0.000 2 0 -1 0 0 10
	 4617 640 4560 640 4560 621 4572 621 4571 602 4579 602
	 4582 602 4578 583 4602 583 4617 640
2 3 0 0 0 7 19 0 20 0.000 2 0 -1 0 0 5
	 4693 583 4617 583 4636 640 4732 640 4693 583
2 3 0 0 0 37 18 0 20 0.000 2 0 -1 0 0 7
	 4732 640 4714 640 4693 594 4621 594 4617 583 4701 583
	 4732 640
2 2 0 0 0 36 18 0 20 0.000 2 0 -1 0 0 5
	 4636 640 4732 640 4732 646 4636 646 4636 640
2 3 0 0 0 36 18 0 20 0.000 2 0 -1 0 0 5
	 4636 640 4636 647 4617 588 4617 583 4636 640
-6
6 4284 430 4722 545
6 4566 450 4699 488
6 4566 450 4699 488
2 1 0 1 36 -1 19 0 -1 0.000 2 0 -1 0 0 5
	 4566 469 4566 459 4607 459 4607 450 4658 450
2 1 0 1 36 -1 19 0 -1 0.000 2 0 -1 0 0 3
	 4607 488 4607 469 4658 469
2 1 0 1 36 -1 19 0 -1 0.000 2 0 -1 0 0 2
	 4658 459 4699 459
2 1 0 1 7 -1 19 0 -1 0.000 2 0 -1 0 0 2
	 4658 450 4658 459
2 1 0 1 7 -1 19 0 -1 0.000 2 0 -1 0 0 2
	 4566 469 4607 469
2 1 0 1 7 -1 19 0 -1 0.000 2 0 -1 0 0 5
	 4607 488 4658 488 4658 469 4699 469 4699 459
2 1 0 1 36 -1 19 0 -1 0.000 2 0 -1 0 0 3
	 4668 488 4689 488 4689 479
2 1 0 1 7 -1 19 0 -1 0.000 2 0 -1 0 0 3
	 4668 488 4668 479 4689 479
-6
-6
2 2 0 1 0 35 20 0 20 0.000 2 0 -1 0 0 5
	 4284 545 4341 545 4341 535 4284 535 4284 545
2 2 0 1 0 35 20 0 20 0.000 2 0 -1 0 0 5
	 4665 545 4722 545 4722 535 4665 535 4665 545
2 2 0 1 0 38 20 0 20 0.000 2 0 -1 0 0 5
	 4284 430 4722 430 4722 535 4284 535 4284 430
-6
-6
# Router small icon
# drawn by P. David
6 1125 1125 1620 1620
1 3 0 1 7 1 50 -1 20 0.000 1 0.0000 1350 1350 225 225 1350 1350 1575 1350
1 3 0 0 0 0 51 -1 20 0.000 1 0.0000 1395 1395 225 225 1395 1395 1620 1395
2 1 0 2 6 7 49 -1 -1 0.000 0 0 7 1 0 3
	1 1 1.00 45.00 60.00
	 1395 1170 1395 1305 1530 1305
2 1 0 2 6 7 49 -1 -1 0.000 0 0 7 1 0 3
	1 1 1.00 45.00 60.00
	 1530 1395 1395 1395 1395 1530
2 1 0 2 6 7 49 -1 -1 0.000 0 0 7 1 0 3
	1 1 1.00 45.00 60.00
	 1305 1530 1305 1395 1170 1395
2 1 0 2 6 7 49 -1 -1 0.000 0 0 7 1 0 3
	1 1 1.00 45.00 60.00
	 1170 1305 1305 1305 1305 1170
-6
# Router small icon
# drawn by P. David
6 3825 1125 4320 1620
1 3 0 1 7 1 50 -1 20 0.000 1 0.0000 4050 1350 225 225 4050 1350 4275 1350
1 3 0 0 0 0 51 -1 20 0.000 1 0.0000 4095 1395 225 225 4095 1395 4320 1395
2 1 0 2 6 7 49 -1 -1 0.000 0 0 7 1 0 3
	1 1 1.00 45.00 60.00
	 4095 1170 4095 1305 4230 1305
2 1 0 2 6 7 49 -1 -1 0.000 0 0 7 1 0 3
	1 1 1.00 45.00 60.00
	 4230 1395 4095 1395 4095 1530
2 1 0 2 6 7 49 -1 -1 0.000 0 0 7 1 0 3
	1 1 1.00 45.00 60.00
	 4005 1530 4005 1395 3870 1395
2 1 0 2 6 7 49 -1 -1 0.000 0 0 7 1 0 3
	1 1 1.00 45.00 60.00
	 3870 1305 4005 1305 4005 1170
-6
1 2 0 1 0 11 50 -1 36 0.000 1 0.0000 2598 2237 398 240 2201 1997 2996 2478
1 2 0 1 0 11 50 -1 36 0.000 1 0.0000 2358 1756 199 283 2557 2039 2159 1474
1 2 0 1 0 11 50 -1 36 0.000 1 0.0000 2692 1630 282 241 2410 1871 2975 1390
1 2 0 1 0 11 50 -1 36 0.000 1 0.0000 2944 1526 220 115 2724 1641 3164 1411
1 2 0 1 0 11 50 -1 36 0.000 1 0.0000 3352 2007 272 261 3080 1746 3624 2269
1 2 0 1 0 11 50 -1 36 0.000 1 0.0000 3027 2248 261 251 2766 1997 3289 2499
1 2 0 1 0 11 50 -1 36 0.000 1 0.0000 3164 1714 314 199 2850 1913 3478 1515
1 2 0 1 0 11 50 -1 36 0.000 1 0.0000 3237 2185 240 209 2996 1976 3478 2394
1 2 0 1 0 11 51 -1 36 0.000 1 0.0000 2264 1934 398 314 1866 1934 2662 1934
2 1 0 1 -1 -1 0 0 -1 0.000 0 0 -1 0 0 2
	 495 900 1665 900
2 1 0 1 -1 -1 0 0 -1 0.000 0 0 -1 0 0 2
	 3780 900 4950 900
2 1 0 1 -1 -1 0 0 -1 0.000 0 0 -1 0 0 2
	 900 675 900 900
2 1 0 1 -1 -1 0 0 -1 0.000 0 0 -1 0 0 2
	 1350 900 1350 1125
2 1 0 1 -1 -1 0 0 -1 0.000 0 0 -1 0 0 2
	 4500 675 4500 900
2 1 0 1 -1 -1 0 0 -1 0.000 0 0 -1 0 0 2
	 4050 900 4050 1125
2 1 0 1 -1 -1 55 0 -1 0.000 0 0 -1 0 0 2
	 1485 1485 1980 1890
2 1 0 1 -1 -1 55 0 -1 0.000 0 0 -1 0 0 2
	 4005 1440 3420 1980
2 2 0 0 7 11 40 -1 36 0.000 0 0 -1 0 0 5
	 2096 1725 3415 1725 3415 2185 2096 2185 2096 1725
2 2 0 0 7 11 40 -1 36 0.000 0 0 -1 0 0 5
	 2578 1515 3122 1515 3122 1808 2578 1808 2578 1515
2 2 0 0 7 11 40 -1 36 0.000 0 0 -1 0 0 5
	 2871 2227 3059 2227 3059 2394 2871 2394 2871 2227
2 2 0 0 7 11 40 -1 36 0.000 0 0 -1 0 0 5
	 2703 2060 3331 2060 3331 2332 2703 2332 2703 2060
2 2 0 0 7 11 40 -1 36 0.000 0 0 -1 0 0 5
	 2368 1557 2515 1557 2515 1788 2368 1788 2368 1557
2 2 0 0 7 11 40 -1 36 0.000 0 0 -1 0 0 5
	 3247 1997 3498 1997 3498 2164 3247 2164 3247 1997
2 2 0 0 7 11 40 -1 36 0.000 0 0 -1 0 0 5
	 2703 1474 2808 1474 2808 1578 2703 1578 2703 1474
4 0 -1 0 0 16 8 0.0000 4 90 735 945 855 203.0.113.1\001
4 0 -1 0 0 16 8 0.0000 4 90 810 1395 1080 203.0.113.30\001
4 2 -1 0 0 16 8 0.0000 4 90 735 4455 855 18.0.71.112\001
4 0 -1 0 0 16 8 0.0000 4 90 510 4095 1080 18.0.1.2\001
4 1 -1 30 0 17 14 0.0000 4 180 795 2745 2025 Internet\001
4 1 -1 0 0 16 12 0.0000 4 150 135 1035 1395 B\001
4 1 -1 0 0 16 12 0.0000 4 150 135 4410 1395 C\001
4 1 -1 0 0 16 12 0.0000 4 150 135 1260 315 A\001
4 1 -1 0 0 16 12 0.0000 4 150 135 4140 315 D\001
