#FIG 3.2
Portrait
Center
Metric
A4      
100.00
Single
-2
1200 2
2 2 0 1 -1 7 0 0 -1 0.000 0 0 -1 0 0 5
	 2250 1350 2520 1350 2520 1620 2250 1620 2250 1350
2 1 0 1 -1 7 0 0 -1 0.000 0 0 -1 0 0 2
	 1845 1890 2250 1485
2 1 0 1 -1 7 0 0 -1 0.000 0 0 -1 0 0 2
	 2520 1485 2925 1890
2 1 0 1 -1 7 0 0 -1 0.000 0 0 -1 0 0 2
	 2385 1125 2385 1350
2 1 0 1 -1 7 0 0 -1 0.000 0 0 -1 0 0 2
	 1935 1125 2655 1125
2 1 0 1 -1 7 0 0 -1 0.000 0 0 -1 0 0 2
	 2250 900 2250 1125
2 2 0 1 -1 7 0 0 -1 0.000 0 0 -1 0 0 5
	 2115 630 2385 630 2385 900 2115 900 2115 630
2 2 0 1 -1 7 0 0 -1 0.000 0 0 -1 0 0 5
	 1710 1890 1980 1890 1980 2160 1710 2160 1710 1890
2 2 0 1 -1 7 0 0 -1 0.000 0 0 -1 0 0 5
	 2790 1890 3060 1890 3060 2160 2790 2160 2790 1890
2 1 0 1 -1 7 0 0 -1 0.000 0 0 -1 0 0 2
	 2925 2160 2925 2565
2 1 0 1 -1 7 0 0 -1 0.000 0 0 -1 0 0 2
	 1260 2700 1710 2700
2 1 0 1 -1 7 0 0 -1 0.000 0 0 -1 0 0 2
	 1980 2700 2790 2700
2 1 0 1 -1 7 0 0 -1 0.000 0 0 -1 0 0 2
	 1845 2160 1845 2565
2 2 0 1 -1 7 0 0 -1 0.000 0 0 -1 0 0 5
	 1710 2565 1980 2565 1980 2835 1710 2835 1710 2565
2 2 0 1 -1 7 0 0 -1 0.000 0 0 -1 0 0 5
	 2790 2565 3060 2565 3060 2835 2790 2835 2790 2565
2 2 0 1 -1 7 0 0 -1 0.000 0 0 -1 0 0 5
	 990 2565 1260 2565 1260 2835 990 2835 990 2565
2 1 0 1 -1 7 0 0 -1 0.000 0 0 -1 0 0 2
	 765 2700 990 2700
2 1 0 1 -1 7 0 0 -1 0.000 0 0 -1 0 0 2
	 765 2250 765 2925
2 1 0 1 -1 7 0 0 -1 0.000 0 0 -1 0 0 2
	 540 2565 765 2565
2 2 0 1 -1 7 0 0 -1 0.000 0 0 -1 0 0 5
	 270 2430 540 2430 540 2700 270 2700 270 2430
2 1 1 1 -1 7 0 0 -1 2.000 0 0 -1 1 0 2
	0 0 1.00 30.00 60.00
	 2351 2337 2396 2607
2 1 1 1 -1 7 0 0 -1 2.000 0 0 -1 1 0 2
	0 0 1.00 30.00 60.00
	 1260 2475 1440 2610
2 1 1 1 -1 7 0 0 -1 2.000 0 0 -1 1 0 2
	0 0 1.00 30.00 60.00
	 1356 2174 1755 2340
2 1 1 1 -1 7 0 0 -1 2.000 0 0 -1 1 0 2
	0 0 1.00 30.00 60.00
	 1623 1591 1884 1738
3 0 0 1 -1 7 0 0 -1 0.000 0 1 0 2
	0 0 1.00 30.00 60.00
	 1215 2655 1665 2655
	 0.000 0.000
3 0 0 1 -1 7 0 0 -1 0.000 0 1 0 2
	0 0 1.00 30.00 60.00
	 1935 2655 2745 2655
	 0.000 0.000
3 0 0 1 -1 7 0 0 -1 0.000 0 1 0 2
	0 0 1.00 30.00 60.00
	 1800 2610 1800 2205
	 0.000 0.000
3 0 0 1 -1 7 0 0 -1 0.000 0 1 0 2
	0 0 1.00 30.00 60.00
	 1746 1921 2217 1444
	 0.000 0.000
4 1 -1 0 0 16 7 0.0000 4 75 75 2250 810 S\001
4 1 -1 0 0 16 7 0.0000 4 75 75 405 2610 R\001
4 1 -1 0 0 16 7 0.0000 4 75 150 2925 2745 RP\001
4 1 -1 0 0 16 7 0.0000 4 75 75 1125 2745 A\001
4 1 -1 0 0 16 7 0.0000 4 75 75 1845 2745 B\001
4 1 -1 0 0 16 7 0.0000 4 75 75 1845 2070 C\001
4 1 -1 0 0 16 7 0.0000 4 75 75 2925 2070 D\001
4 1 -1 0 0 16 7 0.0000 4 75 75 2385 1530 E\001
4 0 -1 0 0 16 6 0.0000 4 75 405 2145 2197 (2) B->RP\001
4 0 -1 0 0 16 6 0.0000 4 90 615 2145 2317 PIM Prune (S,G)\001
4 0 -1 0 0 16 6 0.0000 4 75 345 875 2337 (1) A->B\001
4 0 -1 0 0 16 6 0.0000 4 105 555 875 2457 PIM Join (S,G)\001
4 0 -1 0 0 16 6 0.0000 4 75 345 1010 2022 (3) B->C\001
4 0 -1 0 0 16 6 0.0000 4 105 555 1010 2142 PIM Join (S,G)\001
4 0 -1 0 0 16 6 0.0000 4 75 345 1325 1437 (4) C->E\001
4 0 -1 0 0 16 6 0.0000 4 105 555 1325 1557 PIM Join (S,G)\001
