#FIG 3.2
Portrait
Center
Metric
A4      
100.00
Single
-3
1200 2
0 32 #dfe3df
0 33 #efefdf
0 34 #bec3be
0 35 #dfcbae
0 36 #dfe3df
0 37 #cfd3cf
0 38 #efefef
0 39 #d77918
0 40 #efe718
0 41 #8e7dbe
0 42 #d7d7d7
0 43 #8e8ea6
0 44 #494949
0 45 #595959
0 46 #616161
0 47 #8e8e8e
0 48 #b69a71
0 49 #4192ff
0 50 #be7138
0 51 #d77500
0 52 #d7ba00
0 53 #006500
0 54 #596938
0 55 #cfd3cf
0 56 #aeaaae
0 57 #8e8ea6
0 58 #efba59
0 59 #8e9a69
0 60 #616561
0 61 #b6e7ff
0 62 #86c3ef
0 63 #bebebe
0 64 #cf9651
0 65 #9ed3ff
0 66 #8e6969
0 67 #8e9e69
0 68 #f76900
0 69 #596938
0 70 #8e9e69
0 71 #8e9e79
0 72 #184918
0 73 #aeaeae
0 74 #f7be59
0 75 #61699e
0 76 #f7f7f7
0 77 #df0000
0 78 #aeaeae
0 79 #f7be59
0 80 #aeaeae
0 81 #f7be59
0 82 #61699e
0 83 #516928
0 84 #969696
0 85 #006100
0 86 #9ea6b6
0 87 #ff9600
0 88 #ff9600
0 89 #006149
0 90 #798649
0 91 #617179
0 92 #e7be79
0 93 #184918
0 94 #f7be59
0 95 #dfdfdf
0 96 #efefcf
0 97 #f7ae59
0 98 #96cf9e
0 99 #b61479
0 100 #efefef
0 101 #868686
0 102 #797979
0 103 #005900
0 104 #e77171
0 105 #ffcb30
0 106 #287949
0 107 #df2820
0 108 #2059c7
0 109 #f7fbf7
0 110 #e7e7e7
0 111 #a6b6c7
0 112 #696996
0 113 #866969
0 114 #519e49
0 115 #d7e7e7
0 116 #516161
0 117 #186949
0 118 #208659
0 119 #df9e8e
0 120 #efefdf
0 121 #bec3be
0 122 #dfcbae
0 123 #dfe3df
0 124 #cfd3cf
0 125 #efefef
0 126 #d77918
0 127 #efe718
0 128 #8e7dbe
0 129 #d7d7d7
0 130 #8e8ea6
0 131 #494949
0 132 #595959
0 133 #616161
0 134 #b69a71
0 135 #4192ff
0 136 #be7138
0 137 #d77500
0 138 #d7ba00
0 139 #006500
0 140 #596938
0 141 #cfd3cf
0 142 #aeaaae
0 143 #8e8ea6
0 144 #efba59
0 145 #8e9a69
0 146 #616561
0 147 #b6e7ff
0 148 #86c3ef
0 149 #bebebe
0 150 #cf9651
0 151 #9ed3ff
0 152 #8e6969
0 153 #8e9e69
0 154 #f76900
0 155 #596938
0 156 #8e9e69
0 157 #8e9e79
0 158 #184918
0 159 #aeaeae
0 160 #f7be59
0 161 #61699e
0 162 #df0000
0 163 #aeaeae
0 164 #f7be59
0 165 #aeaeae
0 166 #f7be59
0 167 #61699e
0 168 #516928
0 169 #969696
0 170 #006100
0 171 #9ea6b6
0 172 #ff9600
0 173 #ff9600
0 174 #006149
0 175 #798649
0 176 #617179
0 177 #e7be79
0 178 #184918
0 179 #f7be59
0 180 #dfdfdf
0 181 #efefcf
0 182 #f7ae59
0 183 #96cf9e
0 184 #b61479
0 185 #efefef
0 186 #868686
0 187 #797979
0 188 #005900
0 189 #e77171
0 190 #ffcb30
0 191 #287949
0 192 #df2820
0 193 #2059c7
0 194 #f7fbf7
0 195 #e7e7e7
0 196 #a6b6c7
0 197 #696996
0 198 #866969
0 199 #519e49
0 200 #d7e7e7
0 201 #516161
0 202 #186949
0 203 #208659
0 204 #c7b696
0 205 #effbff
0 206 #dfcba6
0 207 #414141
0 208 #868286
0 209 #bec3be
0 210 #dfe3df
0 211 #8e8e8e
0 212 #aeaaae
0 213 #595559
0 214 #515151
0 215 #e7e3e7
0 216 #000049
0 217 #303430
0 218 #414141
0 219 #c7b696
0 220 #414541
0 221 #cfcfcf
0 222 #868286
0 223 #c7c3c7
0 224 #494549
0 225 #c7c7c7
0 226 #9e9e9e
0 227 #717571
0 228 #effbff
0 229 #616561
0 230 #c7b696
0 231 #effbff
0 232 #dfcba6
0 233 #414141
0 234 #868286
0 235 #bec3be
0 236 #dfe3df
0 237 #8e8e8e
0 238 #aeaaae
0 239 #595559
0 240 #cfcfcf
0 241 #494549
0 242 #616561
0 243 #df9e8e
0 244 #efefdf
0 245 #bec3be
0 246 #dfcbae
0 247 #dfe3df
0 248 #cfd3cf
0 249 #efefef
0 250 #d77918
0 251 #efe718
0 252 #8e7dbe
0 253 #d7d7d7
0 254 #8e8ea6
0 255 #494949
0 256 #595959
0 257 #616161
0 258 #b69a71
0 259 #4192ff
0 260 #be7138
0 261 #d77500
0 262 #d7ba00
0 263 #006500
0 264 #596938
0 265 #cfd3cf
0 266 #aeaaae
0 267 #8e8ea6
0 268 #efba59
0 269 #8e9a69
0 270 #616561
0 271 #b6e7ff
0 272 #86c3ef
0 273 #bebebe
0 274 #cf9651
0 275 #9ed3ff
0 276 #8e6969
0 277 #8e9e69
0 278 #f76900
0 279 #596938
0 280 #8e9e69
0 281 #8e9e79
0 282 #184918
0 283 #aeaeae
0 284 #f7be59
0 285 #61699e
0 286 #df0000
0 287 #aeaeae
0 288 #f7be59
0 289 #aeaeae
0 290 #f7be59
0 291 #61699e
0 292 #516928
0 293 #969696
0 294 #006100
0 295 #9ea6b6
0 296 #ff9600
0 297 #ff9600
0 298 #006149
0 299 #798649
0 300 #617179
0 301 #e7be79
0 302 #184918
0 303 #f7be59
0 304 #dfdfdf
0 305 #efefcf
0 306 #f7ae59
0 307 #96cf9e
0 308 #b61479
0 309 #efefef
0 310 #868686
0 311 #797979
0 312 #005900
0 313 #e77171
0 314 #ffcb30
0 315 #287949
0 316 #df2820
0 317 #2059c7
0 318 #f7fbf7
0 319 #e7e7e7
0 320 #a6b6c7
0 321 #696996
0 322 #866969
0 323 #519e49
0 324 #d7e7e7
0 325 #516161
0 326 #186949
0 327 #208659
0 328 #df9e8e
0 329 #efefdf
0 330 #bec3be
0 331 #dfcbae
0 332 #dfe3df
0 333 #cfd3cf
0 334 #efefef
0 335 #d77918
0 336 #efe718
0 337 #8e7dbe
0 338 #d7d7d7
0 339 #8e8ea6
0 340 #494949
0 341 #595959
0 342 #616161
0 343 #b69a71
0 344 #4192ff
0 345 #be7138
0 346 #d77500
0 347 #d7ba00
0 348 #006500
0 349 #596938
0 350 #cfd3cf
0 351 #aeaaae
0 352 #8e8ea6
0 353 #efba59
0 354 #8e9a69
0 355 #616561
0 356 #b6e7ff
0 357 #86c3ef
0 358 #bebebe
0 359 #cf9651
0 360 #9ed3ff
0 361 #8e6969
0 362 #8e9e69
0 363 #f76900
0 364 #596938
0 365 #8e9e69
0 366 #8e9e79
0 367 #184918
0 368 #aeaeae
0 369 #f7be59
0 370 #61699e
0 371 #df0000
0 372 #aeaeae
0 373 #f7be59
0 374 #aeaeae
0 375 #f7be59
0 376 #61699e
0 377 #516928
0 378 #969696
0 379 #006100
0 380 #9ea6b6
0 381 #ff9600
0 382 #ff9600
0 383 #006149
0 384 #798649
0 385 #617179
0 386 #e7be79
0 387 #184918
0 388 #f7be59
0 389 #dfdfdf
0 390 #efefcf
0 391 #f7ae59
0 392 #96cf9e
0 393 #b61479
0 394 #efefef
0 395 #868686
0 396 #797979
0 397 #005900
0 398 #e77171
0 399 #ffcb30
0 400 #287949
0 401 #df2820
0 402 #2059c7
0 403 #f7fbf7
0 404 #e7e7e7
0 405 #a6b6c7
0 406 #696996
0 407 #866969
0 408 #519e49
0 409 #d7e7e7
0 410 #516161
0 411 #186949
0 412 #208659
0 413 #df9e8e
0 414 #efefdf
0 415 #bec3be
0 416 #dfcbae
0 417 #dfe3df
0 418 #cfd3cf
0 419 #efefef
0 420 #d77918
0 421 #efe718
0 422 #8e7dbe
0 423 #d7d7d7
0 424 #8e8ea6
0 425 #494949
0 426 #595959
0 427 #616161
0 428 #b69a71
0 429 #4192ff
0 430 #be7138
0 431 #d77500
0 432 #d7ba00
0 433 #006500
0 434 #596938
0 435 #cfd3cf
0 436 #aeaaae
0 437 #8e8ea6
0 438 #efba59
0 439 #8e9a69
0 440 #616561
0 441 #b6e7ff
0 442 #86c3ef
0 443 #bebebe
0 444 #cf9651
0 445 #9ed3ff
0 446 #8e6969
0 447 #8e9e69
0 448 #f76900
0 449 #596938
0 450 #8e9e69
0 451 #8e9e79
0 452 #184918
0 453 #aeaeae
0 454 #f7be59
0 455 #61699e
0 456 #df0000
0 457 #aeaeae
0 458 #f7be59
0 459 #aeaeae
0 460 #f7be59
0 461 #61699e
0 462 #516928
0 463 #969696
0 464 #006100
0 465 #9ea6b6
0 466 #ff9600
0 467 #ff9600
0 468 #006149
0 469 #798649
0 470 #617179
0 471 #e7be79
0 472 #184918
0 473 #f7be59
0 474 #dfdfdf
0 475 #efefcf
0 476 #f7ae59
0 477 #96cf9e
0 478 #b61479
0 479 #efefef
0 480 #868686
0 481 #797979
0 482 #005900
0 483 #e77171
0 484 #ffcb30
0 485 #287949
0 486 #df2820
0 487 #2059c7
0 488 #f7fbf7
0 489 #e7e7e7
0 490 #a6b6c7
0 491 #696996
0 492 #866969
0 493 #519e49
0 494 #d7e7e7
0 495 #516161
0 496 #186949
0 497 #208659
0 498 #c7b696
0 499 #effbff
0 500 #dfcba6
0 501 #414141
0 502 #868286
0 503 #bec3be
0 504 #dfe3df
0 505 #8e8e8e
0 506 #aeaaae
0 507 #595559
0 508 #414141
0 509 #868286
0 510 #bec3be
0 511 #868286
0 512 #bec3be
0 513 #dfe3df
0 514 #8e8e8e
0 515 #8e8e8e
0 516 #414141
0 517 #868286
0 518 #bec3be
0 519 #dfe3df
0 520 #414141
0 521 #868286
0 522 #bec3be
0 523 #dfe3df
0 524 #868286
0 525 #bec3be
0 526 #dfe3df
0 527 #c7b696
0 528 #effbff
0 529 #dfcba6
0 530 #c7b696
0 531 #effbff
0 532 #dfcba6
0 533 #aeaaae
0 534 #595559
0 535 #8e8e8e
0 536 #414141
0 537 #868286
0 538 #bec3be
0 539 #dfe3df
0 540 #868286
0 541 #bec3be
0 542 #dfe3df
0 543 #000000
6 450 450 1350 2017
6 550 1017 1250 1784
6 550 1017 1250 1083
2 2 0 0 0 32 19 0 20 0.000 0 1 -1 0 0 5
	 550 1050 1250 1050 1250 1083 550 1083 550 1050
2 2 0 0 0 543 19 0 20 0.000 0 1 -1 0 0 5
	 550 1017 1250 1017 1250 1050 550 1050 550 1017
-6
6 550 1117 1250 1184
2 2 0 0 0 32 19 0 20 0.000 0 1 -1 0 0 5
	 550 1150 1250 1150 1250 1184 550 1184 550 1150
2 2 0 0 0 543 19 0 20 0.000 0 1 -1 0 0 5
	 550 1117 1250 1117 1250 1150 550 1150 550 1117
-6
6 550 1217 1250 1283
2 2 0 0 0 32 19 0 20 0.000 0 1 -1 0 0 5
	 550 1250 1250 1250 1250 1283 550 1283 550 1250
2 2 0 0 0 543 19 0 20 0.000 0 1 -1 0 0 5
	 550 1217 1250 1217 1250 1250 550 1250 550 1217
-6
6 550 1317 1250 1383
2 2 0 0 0 32 19 0 20 0.000 0 1 -1 0 0 5
	 550 1350 1250 1350 1250 1383 550 1383 550 1350
2 2 0 0 0 543 19 0 20 0.000 0 1 -1 0 0 5
	 550 1317 1250 1317 1250 1350 550 1350 550 1317
-6
6 550 1417 1250 1484
2 2 0 0 0 32 19 0 20 0.000 0 1 -1 0 0 5
	 550 1450 1250 1450 1250 1484 550 1484 550 1450
2 2 0 0 0 543 19 0 20 0.000 0 1 -1 0 0 5
	 550 1417 1250 1417 1250 1450 550 1450 550 1417
-6
6 550 1517 1250 1583
2 2 0 0 0 32 19 0 20 0.000 0 1 -1 0 0 5
	 550 1550 1250 1550 1250 1583 550 1583 550 1550
2 2 0 0 0 543 19 0 20 0.000 0 1 -1 0 0 5
	 550 1517 1250 1517 1250 1550 550 1550 550 1517
-6
6 550 1617 1250 1683
2 2 0 0 0 32 19 0 20 0.000 0 1 -1 0 0 5
	 550 1650 1250 1650 1250 1683 550 1683 550 1650
2 2 0 0 0 543 19 0 20 0.000 0 1 -1 0 0 5
	 550 1617 1250 1617 1250 1650 550 1650 550 1617
-6
6 550 1717 1250 1784
2 2 0 0 0 32 19 0 20 0.000 0 1 -1 0 0 5
	 550 1750 1250 1750 1250 1784 550 1784 550 1750
2 2 0 0 0 543 19 0 20 0.000 0 1 -1 0 0 5
	 550 1717 1250 1717 1250 1750 550 1750 550 1717
-6
-6
6 550 583 1250 850
6 550 783 1250 850
2 2 0 0 0 32 19 0 20 0.000 0 1 -1 0 0 5
	 550 817 1250 817 1250 850 550 850 550 817
2 2 0 0 0 543 19 0 20 0.000 0 1 -1 0 0 5
	 550 783 1250 783 1250 817 550 817 550 783
-6
6 550 683 1250 750
2 2 0 0 0 32 19 0 20 0.000 0 1 -1 0 0 5
	 550 717 1250 717 1250 750 550 750 550 717
2 2 0 0 0 543 19 0 20 0.000 0 1 -1 0 0 5
	 550 683 1250 683 1250 717 550 717 550 683
-6
6 550 583 1250 650
2 2 0 0 0 32 19 0 20 0.000 0 1 -1 0 0 5
	 550 617 1250 617 1250 650 550 650 550 617
2 2 0 0 0 543 19 0 20 0.000 0 1 -1 0 0 5
	 550 583 1250 583 1250 617 550 617 550 583
-6
-6
2 2 0 1 0 543 19 0 20 0.000 0 1 -1 0 0 5
	 450 1884 1350 1884 1350 2017 450 2017 450 1884
2 1 0 1 0 32 19 0 20 0.000 0 1 -1 0 0 2
	 450 917 1350 917
2 2 0 1 0 32 20 0 20 0.000 0 1 -1 0 0 5
	 450 450 1350 450 1350 2017 450 2017 450 450
-6
6 3150 450 4050 2017
6 3250 1017 3950 1784
6 3250 1017 3950 1083
2 2 0 0 0 32 19 0 20 0.000 0 1 -1 0 0 5
	 3250 1050 3950 1050 3950 1083 3250 1083 3250 1050
2 2 0 0 0 543 19 0 20 0.000 0 1 -1 0 0 5
	 3250 1017 3950 1017 3950 1050 3250 1050 3250 1017
-6
6 3250 1117 3950 1184
2 2 0 0 0 32 19 0 20 0.000 0 1 -1 0 0 5
	 3250 1150 3950 1150 3950 1184 3250 1184 3250 1150
2 2 0 0 0 543 19 0 20 0.000 0 1 -1 0 0 5
	 3250 1117 3950 1117 3950 1150 3250 1150 3250 1117
-6
6 3250 1217 3950 1283
2 2 0 0 0 32 19 0 20 0.000 0 1 -1 0 0 5
	 3250 1250 3950 1250 3950 1283 3250 1283 3250 1250
2 2 0 0 0 543 19 0 20 0.000 0 1 -1 0 0 5
	 3250 1217 3950 1217 3950 1250 3250 1250 3250 1217
-6
6 3250 1317 3950 1383
2 2 0 0 0 32 19 0 20 0.000 0 1 -1 0 0 5
	 3250 1350 3950 1350 3950 1383 3250 1383 3250 1350
2 2 0 0 0 543 19 0 20 0.000 0 1 -1 0 0 5
	 3250 1317 3950 1317 3950 1350 3250 1350 3250 1317
-6
6 3250 1417 3950 1484
2 2 0 0 0 32 19 0 20 0.000 0 1 -1 0 0 5
	 3250 1450 3950 1450 3950 1484 3250 1484 3250 1450
2 2 0 0 0 543 19 0 20 0.000 0 1 -1 0 0 5
	 3250 1417 3950 1417 3950 1450 3250 1450 3250 1417
-6
6 3250 1517 3950 1583
2 2 0 0 0 32 19 0 20 0.000 0 1 -1 0 0 5
	 3250 1550 3950 1550 3950 1583 3250 1583 3250 1550
2 2 0 0 0 543 19 0 20 0.000 0 1 -1 0 0 5
	 3250 1517 3950 1517 3950 1550 3250 1550 3250 1517
-6
6 3250 1617 3950 1683
2 2 0 0 0 32 19 0 20 0.000 0 1 -1 0 0 5
	 3250 1650 3950 1650 3950 1683 3250 1683 3250 1650
2 2 0 0 0 543 19 0 20 0.000 0 1 -1 0 0 5
	 3250 1617 3950 1617 3950 1650 3250 1650 3250 1617
-6
6 3250 1717 3950 1784
2 2 0 0 0 32 19 0 20 0.000 0 1 -1 0 0 5
	 3250 1750 3950 1750 3950 1784 3250 1784 3250 1750
2 2 0 0 0 543 19 0 20 0.000 0 1 -1 0 0 5
	 3250 1717 3950 1717 3950 1750 3250 1750 3250 1717
-6
-6
6 3250 583 3950 850
6 3250 783 3950 850
2 2 0 0 0 32 19 0 20 0.000 0 1 -1 0 0 5
	 3250 817 3950 817 3950 850 3250 850 3250 817
2 2 0 0 0 543 19 0 20 0.000 0 1 -1 0 0 5
	 3250 783 3950 783 3950 817 3250 817 3250 783
-6
6 3250 683 3950 750
2 2 0 0 0 32 19 0 20 0.000 0 1 -1 0 0 5
	 3250 717 3950 717 3950 750 3250 750 3250 717
2 2 0 0 0 543 19 0 20 0.000 0 1 -1 0 0 5
	 3250 683 3950 683 3950 717 3250 717 3250 683
-6
6 3250 583 3950 650
2 2 0 0 0 32 19 0 20 0.000 0 1 -1 0 0 5
	 3250 617 3950 617 3950 650 3250 650 3250 617
2 2 0 0 0 543 19 0 20 0.000 0 1 -1 0 0 5
	 3250 583 3950 583 3950 617 3250 617 3250 583
-6
-6
2 2 0 1 0 543 19 0 20 0.000 0 1 -1 0 0 5
	 3150 1884 4050 1884 4050 2017 3150 2017 3150 1884
2 1 0 1 0 32 19 0 20 0.000 0 1 -1 0 0 2
	 3150 917 4050 917
2 2 0 1 0 32 20 0 20 0.000 0 1 -1 0 0 5
	 3150 450 4050 450 4050 2017 3150 2017 3150 450
-6
6 4230 855 5015 1575
1 1 0 1 0 7 49 0 20 0.000 1 0.0000 4607 1027 342 138 4607 1027 4948 1027
1 1 0 1 0 7 51 0 20 0.000 1 0.0000 4607 1403 342 138 4607 1403 4948 1403
2 1 0 1 0 7 49 0 -1 0.000 0 0 -1 0 0 2
	 4265 1027 4265 1403
2 1 0 1 0 7 49 0 -1 0.000 0 0 -1 0 0 2
	 4948 1027 4948 1403
2 2 0 1 7 7 50 0 20 0.000 0 0 -1 0 0 5
	 4265 1027 4948 1027 4948 1403 4265 1403 4265 1027
-6
# Desktop computer
6 3162 2925 4050 4050
6 3235 2943 3986 3632
2 2 0 1 0 519 20 0 20 0.000 2 0 7 0 0 5
	 3235 2943 3986 2943 3986 3570 3235 3570 3235 2943
2 2 0 0 0 516 19 0 22 0.000 1 0 -1 0 0 5
	 3830 3006 3767 3006 3767 3507 3830 3507 3830 3006
2 2 0 0 0 516 19 0 24 0.000 1 0 -1 0 0 5
	 3767 3006 3705 3006 3705 3507 3767 3507 3767 3006
2 2 0 0 0 516 19 0 26 0.000 1 0 -1 0 0 5
	 3705 3006 3611 3006 3611 3507 3705 3507 3705 3006
2 2 0 0 0 516 19 0 28 0.000 1 0 -1 0 0 5
	 3611 3006 3517 3006 3517 3507 3611 3507 3611 3006
2 2 0 0 0 516 19 0 30 0.000 1 0 -1 0 0 5
	 3517 3006 3454 3006 3454 3507 3517 3507 3517 3006
2 2 0 0 0 516 19 0 33 0.000 1 0 -1 0 0 5
	 3454 3006 3391 3006 3391 3507 3454 3507 3454 3006
2 2 0 0 0 516 19 0 33 0.000 1 0 -1 0 0 5
	 3391 3006 3329 3006 3329 3507 3391 3507 3391 3006
2 2 0 1 0 517 20 0 20 0.000 2 0 7 0 0 5
	 3454 3570 3767 3570 3767 3601 3454 3601 3454 3570
2 2 0 1 0 517 20 0 20 0.000 2 0 -1 0 0 5
	 3423 3601 3799 3601 3799 3632 3423 3632 3423 3601
2 2 0 0 0 516 19 0 20 0.000 1 0 7 0 0 5
	 3893 3006 3830 3006 3830 3507 3893 3507 3893 3006
3 5 0 0 0 518 18 0 20 0.000 0 0 0 4
	 3298 3006 3298 3507 3329 3476 3329 3037
	 0.000 0.000 0.000 0.000
3 5 0 0 0 7 18 0 20 0.000 0 0 0 5
	 3298 3507 3329 3476 3617 3489 3893 3476 3924 3507
	 0.000 0.000 -1.000 0.000 0.000
3 5 0 0 0 518 18 0 20 0.000 0 0 0 4
	 3924 3006 3924 3507 3893 3476 3893 3037
	 0.000 0.000 0.000 0.000
3 5 0 0 0 517 18 0 20 0.000 0 0 0 5
	 3298 3006 3329 3037 3617 3025 3893 3037 3924 3006
	 0.000 0.000 -1.000 0.000 0.000
-6
6 3172 3852 4049 4040
2 3 0 1 0 519 20 0 20 0.000 2 0 7 0 0 7
	 3266 3852 3955 3852 4049 4009 4049 4040 3172 4040 3172 4009
	 3266 3852
2 1 0 1 0 518 19 0 20 0.000 2 0 -1 0 0 4
	 3172 4009 3172 4040 4049 4040 4049 4009
2 3 0 0 0 7 19 0 20 0.000 2 0 -1 0 0 5
	 3298 3883 3235 3977 3799 3977 3767 3883 3298 3883
2 2 0 0 0 517 18 0 20 0.000 2 0 -1 0 0 5
	 3235 3977 3799 3977 3799 3989 3235 3989 3235 3977
2 3 0 0 0 518 18 0 20 0.000 2 0 -1 0 0 9
	 3286 3883 3235 3977 3329 3977 3342 3946 3320 3946 3333 3914
	 3312 3914 3329 3883 3286 3883
2 3 0 0 0 518 18 0 20 0.000 2 0 -1 0 0 10
	 3799 3977 3705 3977 3705 3946 3725 3946 3722 3914 3736 3914
	 3740 3914 3734 3883 3773 3883 3799 3977
2 3 0 0 0 7 19 0 20 0.000 2 0 -1 0 0 5
	 3924 3883 3799 3883 3830 3977 3986 3977 3924 3883
2 3 0 0 0 518 18 0 20 0.000 2 0 -1 0 0 7
	 3986 3977 3958 3977 3924 3902 3804 3902 3798 3883 3937 3883
	 3986 3977
2 2 0 0 0 517 18 0 20 0.000 2 0 -1 0 0 5
	 3830 3977 3986 3977 3986 3988 3830 3988 3830 3977
2 3 0 0 0 517 18 0 20 0.000 2 0 -1 0 0 5
	 3830 3978 3829 3989 3798 3893 3798 3884 3830 3978
-6
6 3250 3632 3971 3821
6 3714 3665 3933 3728
6 3714 3665 3933 3728
2 1 0 1 517 -1 19 0 -1 0.000 2 0 -1 0 0 5
	 3714 3696 3714 3681 3782 3681 3782 3665 3865 3665
2 1 0 1 517 -1 19 0 -1 0.000 2 0 -1 0 0 3
	 3782 3728 3782 3696 3865 3696
2 1 0 1 517 -1 19 0 -1 0.000 2 0 -1 0 0 2
	 3865 3681 3933 3681
2 1 0 1 7 -1 19 0 -1 0.000 2 0 -1 0 0 2
	 3865 3665 3865 3681
2 1 0 1 7 -1 19 0 -1 0.000 2 0 -1 0 0 2
	 3714 3696 3782 3696
2 1 0 1 7 -1 19 0 -1 0.000 2 0 -1 0 0 5
	 3782 3728 3865 3728 3865 3696 3933 3696 3933 3681
2 1 0 1 517 -1 19 0 -1 0.000 2 0 -1 0 0 3
	 3882 3728 3916 3728 3916 3712
2 1 0 1 7 -1 19 0 -1 0.000 2 0 -1 0 0 3
	 3882 3728 3882 3712 3916 3712
-6
-6
2 2 0 1 0 516 20 0 20 0.000 2 0 -1 0 0 5
	 3250 3821 3344 3821 3344 3804 3250 3804 3250 3821
2 2 0 1 0 516 20 0 20 0.000 2 0 -1 0 0 5
	 3877 3821 3971 3821 3971 3804 3877 3804 3877 3821
2 2 0 1 0 519 20 0 20 0.000 2 0 -1 0 0 5
	 3250 3632 3971 3632 3971 3806 3250 3806 3250 3632
-6
-6
6 450 2700 1350 4267
6 550 3267 1250 4034
6 550 3267 1250 3333
2 2 0 0 0 32 19 0 20 0.000 0 1 -1 0 0 5
	 550 3300 1250 3300 1250 3333 550 3333 550 3300
2 2 0 0 0 543 19 0 20 0.000 0 1 -1 0 0 5
	 550 3267 1250 3267 1250 3300 550 3300 550 3267
-6
6 550 3367 1250 3434
2 2 0 0 0 32 19 0 20 0.000 0 1 -1 0 0 5
	 550 3400 1250 3400 1250 3434 550 3434 550 3400
2 2 0 0 0 543 19 0 20 0.000 0 1 -1 0 0 5
	 550 3367 1250 3367 1250 3400 550 3400 550 3367
-6
6 550 3467 1250 3533
2 2 0 0 0 32 19 0 20 0.000 0 1 -1 0 0 5
	 550 3500 1250 3500 1250 3533 550 3533 550 3500
2 2 0 0 0 543 19 0 20 0.000 0 1 -1 0 0 5
	 550 3467 1250 3467 1250 3500 550 3500 550 3467
-6
6 550 3567 1250 3633
2 2 0 0 0 32 19 0 20 0.000 0 1 -1 0 0 5
	 550 3600 1250 3600 1250 3633 550 3633 550 3600
2 2 0 0 0 543 19 0 20 0.000 0 1 -1 0 0 5
	 550 3567 1250 3567 1250 3600 550 3600 550 3567
-6
6 550 3667 1250 3734
2 2 0 0 0 32 19 0 20 0.000 0 1 -1 0 0 5
	 550 3700 1250 3700 1250 3734 550 3734 550 3700
2 2 0 0 0 543 19 0 20 0.000 0 1 -1 0 0 5
	 550 3667 1250 3667 1250 3700 550 3700 550 3667
-6
6 550 3767 1250 3833
2 2 0 0 0 32 19 0 20 0.000 0 1 -1 0 0 5
	 550 3800 1250 3800 1250 3833 550 3833 550 3800
2 2 0 0 0 543 19 0 20 0.000 0 1 -1 0 0 5
	 550 3767 1250 3767 1250 3800 550 3800 550 3767
-6
6 550 3867 1250 3933
2 2 0 0 0 32 19 0 20 0.000 0 1 -1 0 0 5
	 550 3900 1250 3900 1250 3933 550 3933 550 3900
2 2 0 0 0 543 19 0 20 0.000 0 1 -1 0 0 5
	 550 3867 1250 3867 1250 3900 550 3900 550 3867
-6
6 550 3967 1250 4034
2 2 0 0 0 32 19 0 20 0.000 0 1 -1 0 0 5
	 550 4000 1250 4000 1250 4034 550 4034 550 4000
2 2 0 0 0 543 19 0 20 0.000 0 1 -1 0 0 5
	 550 3967 1250 3967 1250 4000 550 4000 550 3967
-6
-6
6 550 2833 1250 3100
6 550 3033 1250 3100
2 2 0 0 0 32 19 0 20 0.000 0 1 -1 0 0 5
	 550 3067 1250 3067 1250 3100 550 3100 550 3067
2 2 0 0 0 543 19 0 20 0.000 0 1 -1 0 0 5
	 550 3033 1250 3033 1250 3067 550 3067 550 3033
-6
6 550 2933 1250 3000
2 2 0 0 0 32 19 0 20 0.000 0 1 -1 0 0 5
	 550 2967 1250 2967 1250 3000 550 3000 550 2967
2 2 0 0 0 543 19 0 20 0.000 0 1 -1 0 0 5
	 550 2933 1250 2933 1250 2967 550 2967 550 2933
-6
6 550 2833 1250 2900
2 2 0 0 0 32 19 0 20 0.000 0 1 -1 0 0 5
	 550 2867 1250 2867 1250 2900 550 2900 550 2867
2 2 0 0 0 543 19 0 20 0.000 0 1 -1 0 0 5
	 550 2833 1250 2833 1250 2867 550 2867 550 2833
-6
-6
2 2 0 1 0 543 19 0 20 0.000 0 1 -1 0 0 5
	 450 4134 1350 4134 1350 4267 450 4267 450 4134
2 1 0 1 0 32 19 0 20 0.000 0 1 -1 0 0 2
	 450 3167 1350 3167
2 2 0 1 0 32 20 0 20 0.000 0 1 -1 0 0 5
	 450 2700 1350 2700 1350 4267 450 4267 450 2700
-6
2 1 0 1 0 7 50 -1 -1 0.000 0 0 -1 1 0 2
	1 1 1.00 60.00 120.00
	 1395 1080 3105 1080
2 1 0 1 0 7 50 -1 -1 0.000 0 0 -1 1 0 2
	1 1 1.00 60.00 120.00
	 3105 855 1395 855
2 1 0 1 0 7 50 -1 -1 0.000 0 0 -1 0 0 2
	 4050 1215 4275 1215
2 1 0 1 0 7 50 -1 -1 0.000 0 0 -1 1 0 2
	1 1 1.00 60.00 120.00
	 3510 2880 3510 2070
2 1 0 1 0 7 50 -1 -1 0.000 0 0 -1 1 0 2
	1 1 1.00 60.00 120.00
	 3645 2070 3645 2880
4 0 0 50 -1 16 8 0.0000 6 120 960 1395 1215 R: pirate.com A ...\001
4 0 0 50 -1 16 8 0.0000 6 105 1770 1395 1350 +: www.marchand.com A 1.2.3.4\001
4 2 0 50 -1 16 8 0.0000 6 135 945 3105 810 Q: pirate.com/A ?\001
4 1 0 50 -1 16 8 0.0000 6 90 735 900 225 Serveur DNS\001
4 1 0 50 -1 16 8 0.0000 6 120 570 900 390 pirate.com\001
4 1 0 50 -1 16 8 0.0000 6 90 735 3600 225 Serveur DNS\001
4 1 0 50 -1 16 8 0.0000 6 105 255 3600 390 local\001
4 1 0 50 -1 16 8 0.0000 6 105 480 4635 1665 cache du\001
4 1 0 50 -1 16 8 0.0000 6 90 705 4635 1830 serveur DNS\001
4 1 0 50 -1 16 8 0.0000 6 120 780 900 2475 Serveur pirate\001
4 1 0 50 -1 16 8 0.0000 6 90 390 900 2640 1.2.3.4\001
4 2 0 50 -1 16 8 0.0000 6 135 1470 3465 2475 Q: www.marchand.com/A ?\001
4 0 0 50 -1 16 8 0.0000 6 105 1785 3690 2475 R: www.marchand.com A 1.2.3.4\001
