#FIG 3.2  Produced by xfig version 3.2.5c
Portrait
Center
Metric
A4      
100.00
Single
-3
1200 2
6 2280 1080 2565 1365
2 1 0 5 4 7 49 -1 -1 0.000 0 0 -1 0 0 2
	 2535 1163 2310 1298
2 1 0 5 4 7 49 -1 -1 0.000 0 0 -1 0 0 2
	 2368 1110 2503 1335
-6
2 1 0 1 0 7 50 -1 -1 0.000 0 0 -1 1 0 2
	1 1 1.00 60.00 120.00
	 495 675 1755 855
2 1 0 1 0 7 50 -1 -1 0.000 0 0 -1 1 0 2
	1 1 1.00 60.00 120.00
	 450 495 450 1575
2 1 0 1 0 7 50 -1 -1 0.000 0 0 -1 1 0 2
	1 1 1.00 60.00 120.00
	 1800 495 1800 1575
2 1 0 1 0 7 50 -1 -1 0.000 0 0 -1 1 0 2
	1 1 1.00 60.00 120.00
	 3150 495 3150 1575
2 1 0 1 0 7 50 -1 -1 0.000 0 0 -1 1 0 2
	1 1 1.00 60.00 120.00
	 1845 900 3105 1080
2 1 0 1 0 7 50 -1 -1 0.000 0 0 -1 1 0 2
	1 1 1.00 60.00 120.00
	 3105 1125 2205 1260
2 1 0 1 0 7 50 -1 -1 0.000 0 0 -1 1 0 2
	1 1 1.00 60.00 120.00
	 495 1125 1755 1305
4 1 0 50 -1 16 10 0.0000 6 120 105 450 450 P\001
4 1 0 50 -1 16 10 0.0000 6 120 105 1800 450 V\001
4 1 0 50 -1 16 10 0.0000 6 120 45 3150 450 I\001
4 0 0 50 -1 16 8 0.0000 6 135 1290 1845 855 V->I, Syn I+1, Ack V\001
4 0 0 50 -1 16 8 0.0000 6 135 675 495 630 I->V, Syn I\001
4 0 0 50 -1 16 8 0.0000 6 135 1440 495 1080 I->V, Syn I+1, Ack V+1\001
4 0 0 50 -1 16 8 0.0000 6 105 285 2790 1305 RST\001
4 1 0 50 -1 17 8 0.0000 6 135 885 2475 1440 emp\352chement\001
4 1 0 50 -1 17 8 0.0000 6 105 1140 2475 1575 de communication\001
