#FIG 3.2  Produced by xfig version 3.2.5c
Portrait
Center
Metric
A4      
100.00
Single
-2
1200 2
6 405 3330 2295 3465
4 1 -1 0 0 16 10 0.0000 4 120 45 2250 3465 t\001
4 1 -1 0 0 16 10 0.0000 4 120 45 450 3465 t\001
-6
2 1 0 1 -1 -1 0 0 -1 0.000 0 0 -1 1 0 2
	1 1 1.00 45.00 90.00
	 2250 225 2250 3330
2 1 0 1 -1 -1 0 0 -1 0.000 0 0 -1 1 0 2
	1 1 1.00 45.00 90.00
	 450 225 450 3330
2 1 0 1 -1 -1 0 0 -1 0.000 0 0 -1 1 0 2
	1 1 1.00 45.00 90.00
	 495 450 2205 900
2 1 0 1 -1 -1 0 0 -1 0.000 0 0 -1 1 0 2
	1 1 1.00 45.00 90.00
	 2205 1125 495 1575
2 1 0 1 -1 -1 0 0 -1 0.000 0 0 -1 1 0 2
	1 1 1.00 45.00 90.00
	 2210 1357 500 1807
2 1 0 1 -1 -1 0 0 -1 0.000 0 0 -1 1 0 2
	1 1 1.00 45.00 90.00
	 2210 1665 500 2115
2 1 0 1 -1 -1 0 0 -1 0.000 0 0 -1 1 0 2
	1 1 1.00 45.00 90.00
	 2205 2070 495 2520
2 1 0 1 -1 -1 0 0 -1 0.000 0 0 -1 1 0 2
	1 1 1.00 45.00 90.00
	 510 2730 2220 3195
4 2 12 0 0 20 8 0.0000 4 135 735 2205 1080 ACK (ack=x+1)\001
4 0 18 0 0 20 8 0.0000 4 135 570 495 405 FIN (seq=x)\001
4 1 0 50 0 18 12 1.5708 6 30 180 1350 1755 ...\001
4 2 18 0 0 20 8 0.0000 4 135 570 2205 2025 FIN (seq=y)\001
4 0 12 0 0 20 8 0.0000 4 135 735 495 2700 ACK (ack=y+1)\001
