#FIG 3.2  Produced by xfig version 3.2.7b
Portrait
Center
Metric
A4
100.00
Single
-2
1200 2
2 1 0 1 -1 -1 0 0 -1 0.000 0 0 -1 1 0 2
	0 0 1.00 45.00 90.00
	 2490 4320 690 4410
2 1 0 1 -1 -1 0 0 -1 0.000 0 0 -1 1 0 2
	0 0 1.00 45.00 90.00
	 2490 945 690 1035
2 1 0 1 -1 -1 0 0 -1 0.000 0 0 -1 1 0 2
	0 0 1.00 45.00 90.00
	 2490 1620 690 1710
2 1 0 1 -1 -1 0 0 -1 0.000 0 0 -1 1 0 2
	0 0 1.00 45.00 90.00
	 675 2100 2475 2190
2 1 0 1 -1 -1 0 0 -1 0.000 0 0 -1 1 0 2
	0 0 1.00 45.00 90.00
	 2490 2295 690 2385
2 1 0 1 -1 -1 0 0 -1 0.000 0 0 -1 1 0 2
	0 0 1.00 45.00 90.00
	 675 3450 2475 3540
2 1 0 1 -1 -1 0 0 -1 0.000 0 0 -1 1 0 2
	0 0 1.00 45.00 90.00
	 675 4800 2475 4890
2 1 0 1 -1 -1 0 0 -1 0.000 0 0 -1 1 0 2
	0 0 1.00 45.00 90.00
	 2490 4995 690 5085
2 1 0 1 -1 -1 0 0 -1 0.000 0 0 -1 1 0 2
	0 0 1.00 45.00 90.00
	 2475 5295 675 5385
2 1 0 1 -1 -1 0 0 -1 0.000 0 0 -1 1 0 2
	0 0 1.00 45.00 90.00
	 675 2775 2475 2865
2 1 0 1 -1 -1 0 0 -1 0.000 0 0 -1 1 0 2
	0 0 1.00 45.00 90.00
	 2490 2970 690 3060
2 1 2 1 -1 -1 0 0 -1 3.000 0 0 -1 0 0 2
	 675 360 675 5535
2 1 2 1 -1 -1 0 0 -1 3.000 0 0 -1 0 0 2
	 2700 360 2700 5535
2 1 2 1 -1 -1 0 0 -1 3.000 0 0 -1 0 0 2
	 4500 360 4500 5535
2 1 0 1 -1 -1 0 0 -1 0.000 0 0 -1 1 0 2
	0 0 1.00 45.00 90.00
	 675 1425 2475 1515
2 1 2 1 -1 -1 0 0 -1 3.000 0 0 -1 0 0 2
	 2475 360 2475 5535
2 1 0 1 -1 -1 0 0 -1 0.000 0 0 -1 1 0 2
	0 0 1.00 45.00 90.00
	 675 750 2475 840
2 1 0 1 -1 -1 0 0 -1 0.000 0 0 -1 1 0 2
	0 0 1.00 60.00 120.00
	 450 405 450 5715
2 1 0 1 -1 -1 0 0 -1 0.000 0 0 -1 1 0 2
	0 0 1.00 45.00 90.00
	 2698 4035 4498 4125
2 1 0 1 -1 -1 0 0 -1 0.000 0 0 -1 1 0 2
	0 0 1.00 45.00 90.00
	 2698 4170 4498 4260
2 1 0 1 -1 -1 0 0 -1 0.000 0 0 -1 1 0 2
	0 0 1.00 45.00 90.00
	 2698 3810 4498 3900
2 1 0 1 -1 -1 0 0 -1 0.000 0 0 -1 1 0 2
	0 0 1.00 45.00 90.00
	 2700 3690 4500 3780
4 0 -1 0 0 12 6 0.0000 4 75 1260 900 1125 220 soleil FTP server\001
4 0 -1 0 0 16 8 0.0000 4 105 360 585 180 Client\001
4 0 -1 0 0 16 6 0.0000 4 105 360 585 315 port = ?\001
4 0 -1 0 0 16 6 0.0000 4 105 360 2655 315 port = ?\001
4 2 -1 0 0 16 6 0.0000 4 90 420 2520 315 port = 21\001
4 2 -1 0 0 16 8 0.0000 4 105 480 2520 180 Serveur\001
4 0 -1 0 0 16 8 0.0000 4 105 360 2655 180 Client\001
4 2 -1 0 0 16 8 0.0000 4 105 480 4590 180 Serveur\001
4 2 -1 0 0 16 6 0.0000 4 90 600 4590 315 port = 65535\001
4 2 -1 0 0 16 6 0.0000 4 90 1140 4275 3645 ouverture de connexion\001
4 0 -1 0 0 16 6 0.0000 4 90 1140 900 720 ouverture de connexion\001
4 0 -1 0 0 12 6 0.0000 4 90 480 900 1395 USER pda\001
4 0 -1 0 0 12 6 0.0000 4 90 1800 900 1800 331 Password required for pda.\001
4 0 -1 0 0 12 6 0.0000 4 60 540 900 2070 PASS toto\001
4 0 -1 0 0 12 6 0.0000 4 90 1380 900 2475 230 User pda logged in.\001
4 0 -1 0 0 12 6 0.0000 4 60 240 900 2745 PASV\001
4 0 -1 0 0 12 6 0.0000 4 90 2820 900 3150 227 Entering Passive Mode (193,51,24,1,255,255)\001
4 0 -1 0 0 12 6 0.0000 4 75 780 900 3420 RETR machin.c\001
4 0 -1 0 0 12 6 0.0000 4 90 1260 900 4500 226 Transfer complete\001
4 0 -1 0 0 12 6 0.0000 4 75 240 900 4770 QUIT\001
4 0 -1 0 0 12 6 0.0000 4 90 660 900 5175 221 Goodbye\001
4 2 -1 0 0 16 6 0.0000 4 90 1140 2250 5490 fermeture de connexion\001
4 2 -1 0 0 16 6 0.0000 4 90 1140 4275 4365 fermeture de connexion\001
4 0 -1 0 0 12 12 0.0000 4 30 360 3600 4005 ...\001
