#FIG 3.2  Produced by xfig version 3.2.5c
Portrait
Center
Metric
A4      
100.00
Single
-2
1200 2
0 32 #c6b797
0 33 #eff8ff
0 34 #dccba6
0 35 #404040
0 36 #808080
0 37 #c0c0c0
0 38 #e0e0e0
0 39 #8e8f8e
0 40 #aaaaaa
0 41 #555555
0 42 #bebebe
0 43 #515151
0 44 #e7e3e7
0 45 #000049
0 46 #797979
0 47 #303430
0 48 #414141
0 49 #c7b696
0 50 #8e8e8e
0 51 #414541
0 52 #8e8e8e
0 53 #cccccc
0 54 #868286
0 55 #c7c3c7
0 56 #444444
0 57 #868686
0 58 #c7c7c7
0 59 #e7e7e7
0 60 #f7f7f7
0 61 #9e9e9e
0 62 #717571
0 63 #effbff
0 64 #666666
0 65 #000000
0 66 #ffffff
0 67 #dd9d93
0 68 #f1ece0
0 69 #c3c3c3
0 70 #e2c8a8
0 71 #e1e1e1
0 72 #d2d2d2
0 73 #ededed
0 74 #da7a1a
0 75 #f1e41a
0 76 #887dc2
0 77 #d6d6d6
0 78 #8c8ca5
0 79 #4a4a4a
0 80 #5a5a5a
0 81 #636363
0 82 #b79b73
0 83 #4193ff
0 84 #bf703b
0 85 #db7700
0 86 #dab800
0 87 #006400
0 88 #5a6b3b
0 89 #d3d3d3
0 90 #8e8ea4
0 91 #f3b95d
0 92 #89996b
0 93 #646464
0 94 #b7e6ff
0 95 #86c0ec
0 96 #bdbdbd
0 97 #d39552
0 98 #98d2fe
0 99 #8c6b6b
0 100 #eeeeee
0 101 #848484
0 102 #7b7b7b
0 103 #005a00
0 104 #e77373
0 105 #ffcb31
0 106 #29794a
0 107 #de2821
0 108 #2159c6
0 109 #f8f8f8
0 110 #e6e6e6
0 111 #a5b5c6
0 112 #6b6b94
0 113 #846b6b
0 114 #529c4a
0 115 #d6e7e7
0 116 #526363
0 117 #186b4a
0 118 #21845a
0 119 #f3eed3
0 120 #f5ae5d
0 121 #95ce99
0 122 #b5157d
0 123 #5a6b39
0 124 #8c9c6b
0 125 #8c9c7b
0 126 #184a18
0 127 #adadad
0 128 #f7bd5a
0 129 #636b9c
0 130 #de0000
0 131 #adadad
0 132 #f7bd5a
0 133 #adadad
0 134 #f7bd5a
0 135 #636b9c
0 136 #526b29
0 137 #949494
0 138 #006300
0 139 #9ca5b5
0 140 #ff9400
0 141 #ff9400
0 142 #00634a
0 143 #7b844a
0 144 #63737b
0 145 #e7bd7b
0 146 #184a18
0 147 #f7bd5a
0 148 #dedede
0 149 #f76b00
0 150 #565151
0 151 #d7d7d7
0 152 #85807d
0 153 #3a3a3a
0 154 #4573aa
0 155 #aeaeae
0 156 #7b79a5
0 157 #73758c
0 158 #635dce
6 675 1530 1170 2250
6 675 1530 1125 2205
1 1 0 1 0 31 60 0 37 0.000 1 0.0000 900 1665 225 91 900 1665 1125 1665
1 1 0 1 0 31 62 0 37 0.000 1 0.0000 900 2114 225 91 900 2114 1125 2114
2 2 0 0 7 31 61 0 37 0.000 0 0 -1 0 0 5
	 675 1665 1125 1665 1125 2114 675 2114 675 1665
2 1 0 1 0 31 60 0 37 0.000 0 0 -1 0 0 2
	 675 1665 675 2114
2 1 0 1 0 31 60 0 37 0.000 0 0 -1 0 0 2
	 1125 1665 1125 2114
-6
6 720 1665 1080 2070
2 1 0 1 0 -1 50 0 -1 0.000 0 0 -1 0 0 5
	 900 1665 810 1800 855 1890 810 1980 900 2070
2 1 0 1 0 -1 50 0 -1 0.000 0 0 -1 0 0 2
	 810 1800 720 1890
2 1 0 1 0 -1 50 0 -1 0.000 0 0 -1 0 0 2
	 810 1980 720 2070
2 1 0 1 0 -1 50 0 -1 0.000 0 0 -1 0 0 2
	 900 1665 990 1845
2 1 0 1 0 -1 50 0 -1 0.000 0 0 -1 0 0 3
	 990 1845 945 1935 990 2025
2 1 0 1 0 -1 50 0 -1 0.000 0 0 -1 0 0 2
	 990 1845 1080 1935
2 1 0 1 0 -1 50 0 -1 0.000 0 0 -1 0 0 2
	 945 1935 945 2070
2 1 0 1 0 -1 50 0 -1 0.000 0 0 -1 0 0 2
	 900 1665 1035 1710
2 1 0 1 0 -1 50 0 -1 0.000 0 0 -1 0 0 2
	 900 1665 900 1800
-6
6 720 1619 1170 2250
1 1 0 1 0 0 65 0 20 0.000 1 0.0000 945 1710 225 91 945 1710 1170 1710
1 1 0 1 0 0 67 0 20 0.000 1 0.0000 945 2159 225 91 945 2159 1170 2159
2 2 0 0 7 0 66 0 20 0.000 0 0 -1 0 0 5
	 720 1710 1170 1710 1170 2159 720 2159 720 1710
2 1 0 1 0 0 65 0 20 0.000 0 0 -1 0 0 2
	 720 1710 720 2159
2 1 0 1 0 0 65 0 20 0.000 0 0 -1 0 0 2
	 1170 1710 1170 2159
-6
-6
2 1 0 1 -1 -1 70 0 -1 0.000 0 0 -1 1 0 2
	1 1 1.00 45.00 90.00
	 900 1350 900 1575
2 2 0 1 0 11 52 -1 38 0.000 0 0 -1 0 0 5
	 225 225 1575 225 1575 495 225 495 225 225
2 2 0 1 0 12 52 -1 38 0.000 0 0 -1 0 0 5
	 225 495 1575 495 1575 675 225 675 225 495
2 2 0 1 -1 20 51 0 34 0.000 0 0 0 0 0 5
	 1440 1125 1035 1125 1035 900 1440 900 1440 1125
2 2 0 1 -1 -1 55 0 20 0.000 0 0 0 0 0 5
	 1620 1395 270 1395 270 270 1620 270 1620 1395
2 2 0 1 0 20 52 -1 38 0.000 0 0 -1 0 0 5
	 225 675 1575 675 1575 1170 225 1170 225 675
2 2 0 1 -1 20 51 0 34 0.000 0 0 0 0 0 5
	 765 1125 360 1125 360 900 765 900 765 1125
2 2 0 1 0 8 52 -1 38 0.000 0 0 -1 0 0 5
	 225 1170 1575 1170 1575 1350 225 1350 225 1170
4 1 -1 50 0 17 8 0.0000 4 165 1350 900 630 interface noyau\001
4 1 -1 50 0 17 8 0.0000 4 120 810 900 405 processus\001
4 1 -1 50 0 17 8 0.0000 4 135 270 900 810 SGF\001
4 1 -1 50 0 17 8 0.0000 4 135 450 540 1080 inode\001
4 1 -1 50 0 17 8 0.0000 4 135 450 1215 1080 inode\001
4 1 -1 50 0 17 8 0.0000 4 135 630 900 1305 drivers\001
