> sleep 10			# lancé en avant-plan, ah zut !
^Z				# pas grave, je le suspends
zsh: suspended  sleep 10
> jobs				# quels sont les jobs lancés ?
[1]  + suspended  sleep 10	# c'est bon, il est là, c'est le \%1
> sleep 20 &			# j'en lance un autre en arrière-plan
[2] 64227			# c'est le job \%2
> jobs				# où en suis-je ?
[1]  + suspended  sleep 10	# le premier est bien suspendu
[2]  - running    sleep 20	# et le deuxième tourne toujours
> ps -l				# les jobs suspendus sont dans l'état T
F S   UID   PID PPID  C PRI NI ADDR SZ WCHAN  TTY       TIME CMD
0 S  1000  2288 2032  0  80  0 -  4725 sigsus pts/4 00:00:04 zsh
0 T  1000 64215 2288  0  80  0 -  2657 do_sig pts/4 00:00:00 sleep
0 S  1000 64227 2288  0  85  5 -  2657 hrtime pts/4 00:00:00 sleep
4 R  1000 64228 2288  0  80  0 -  3704 -      pts/4 00:00:00 ps
> fg %2				# je mets le \%2 en avant-plan
[2]  - running    sleep 20
> bg %1				# et je relance \%1 en arrière-plan
[1]  - continued  sleep 10
