> sleep 10		# ... attente de 10 secondes, c'est long, c'est long...
> sleep 20 &		# pas d'attente, le Shell redonne tout de suite le prompt
> sleep 30 &		# pas d'attente, le Shell redonne tout de suite le prompt
> ps -f
UID       PID    PPID  C STIME TTY          TIME CMD
pda     62193   62192  0 18:15 pts/8    00:00:00 /bin/dash
pda     62213   62193  0 18:15 pts/8    00:00:00 sleep 20
pda     62214   62193  0 18:15 pts/8    00:00:00 sleep 30
pda     62216   62193  0 18:15 pts/8    00:00:00 ps -f
