#FIG 3.2  Produced by xfig version 3.2.5b
Landscape
Center
Metric
A4      
100.00
Single
-2
1200 2
5 1 0 1 0 7 50 -1 -1 0.000 0 0 0 0 855.000 900.000 450 900 855 495 1260 900
5 1 2 1 0 7 50 -1 -1 1.500 0 0 0 0 1035.000 900.000 630 900 1035 495 1440 900
5 1 2 1 0 7 50 -1 -1 1.500 0 0 0 0 1215.000 900.000 810 900 1215 495 1620 900
5 1 2 1 0 7 50 -1 -1 1.500 0 0 0 0 1395.000 900.000 990 900 1395 495 1800 900
5 1 2 1 0 7 50 -1 -1 1.500 0 0 0 0 1575.000 900.000 1170 900 1575 495 1980 900
5 1 0 1 0 7 50 -1 -1 0.000 0 0 0 0 1755.000 900.000 1350 900 1755 495 2160 900
5 1 2 1 0 7 50 -1 -1 1.500 0 0 0 0 1935.000 900.000 1530 900 1935 495 2340 900
5 1 2 1 0 7 50 -1 -1 1.500 0 0 0 0 2115.000 900.000 1710 900 2115 495 2520 900
5 1 2 1 0 7 50 -1 -1 1.500 0 0 0 0 2295.000 900.000 1890 900 2295 495 2700 900
5 1 2 1 0 7 50 -1 -1 1.500 0 0 0 0 2475.000 900.000 2070 900 2475 495 2880 900
5 1 0 1 0 7 50 -1 -1 0.000 0 0 0 0 3465.000 900.000 3060 900 3465 495 3870 900
5 1 0 1 0 7 50 -1 -1 0.000 0 0 0 0 2655.000 900.000 2250 900 2655 495 3060 900
5 1 2 1 0 7 50 -1 -1 1.500 0 0 0 0 2835.000 900.000 2430 900 2835 495 3240 900
5 1 2 1 0 7 50 -1 -1 1.500 0 0 0 0 3015.000 900.000 2610 900 3015 495 3420 900
2 1 0 1 0 7 50 -1 -1 0.000 0 0 -1 0 0 2
	 855 495 855 360
2 1 0 1 0 7 50 -1 -1 0.000 0 0 -1 0 0 2
	 1035 495 1035 360
2 1 0 1 0 7 50 -1 -1 0.000 0 0 -1 0 0 2
	 1215 495 1215 360
2 1 0 1 0 7 50 -1 -1 0.000 0 0 -1 0 0 2
	 1395 495 1395 360
2 1 0 1 0 7 50 -1 -1 0.000 0 0 -1 0 0 2
	 1575 495 1575 360
2 1 0 1 0 7 50 -1 -1 0.000 0 0 -1 0 0 2
	 1755 495 1755 360
2 1 0 1 0 7 50 -1 -1 0.000 0 0 -1 0 0 2
	 1935 495 1935 360
2 1 0 1 0 7 50 -1 -1 0.000 0 0 -1 0 0 2
	 2115 495 2115 360
2 1 0 1 0 7 50 -1 -1 0.000 0 0 -1 0 0 2
	 2295 495 2295 360
2 1 0 1 0 7 50 -1 -1 0.000 0 0 -1 0 0 2
	 2475 495 2475 360
2 1 0 1 0 7 50 -1 -1 0.000 0 0 -1 0 0 2
	 3465 495 3465 360
2 1 0 1 0 7 50 -1 -1 0.000 0 0 -1 0 0 2
	 2655 495 2655 360
2 1 0 1 0 7 50 -1 -1 0.000 0 0 -1 0 0 2
	 2835 495 2835 360
2 1 0 1 0 7 50 -1 -1 0.000 0 0 -1 0 0 2
	 3015 495 3015 360
2 1 0 1 0 7 50 -1 -1 0.000 0 0 -1 1 0 2
	1 1 1.00 60.00 120.00
	 360 900 4140 900
2 1 0 1 0 7 50 -1 -1 0.000 0 0 -1 0 0 2
	 855 855 855 945
2 1 0 1 0 7 50 -1 -1 0.000 0 0 -1 0 0 2
	 1035 855 1035 945
2 1 0 1 0 7 50 -1 -1 0.000 0 0 -1 0 0 2
	 1215 855 1215 945
2 1 0 1 0 7 50 -1 -1 0.000 0 0 -1 0 0 2
	 1395 855 1395 945
2 1 0 1 0 7 50 -1 -1 0.000 0 0 -1 0 0 2
	 1575 855 1575 945
2 1 0 1 0 7 50 -1 -1 0.000 0 0 -1 0 0 2
	 1755 855 1755 945
2 1 0 1 0 7 50 -1 -1 0.000 0 0 -1 0 0 2
	 1935 855 1935 945
2 1 0 1 0 7 50 -1 -1 0.000 0 0 -1 0 0 2
	 2115 855 2115 945
2 1 0 1 0 7 50 -1 -1 0.000 0 0 -1 0 0 2
	 2295 855 2295 945
2 1 0 1 0 7 50 -1 -1 0.000 0 0 -1 0 0 2
	 2475 855 2475 945
2 1 0 1 0 7 50 -1 -1 0.000 0 0 -1 0 0 2
	 2655 855 2655 945
2 1 0 1 0 7 50 -1 -1 0.000 0 0 -1 0 0 2
	 2835 855 2835 945
2 1 0 1 0 7 50 -1 -1 0.000 0 0 -1 0 0 2
	 3015 855 3015 945
2 1 0 1 0 7 50 -1 -1 0.000 0 0 -1 0 0 2
	 3465 855 3465 945
2 1 0 1 0 7 50 -1 -1 0.000 0 0 -1 1 1 2
	1 1 1.00 45.00 90.00
	1 1 1.00 45.00 90.00
	 1350 1260 2160 1260
4 1 0 50 -1 16 5 0.0000 4 75 210 855 1035 2,412\001
4 1 0 50 -1 16 5 0.0000 4 75 210 1215 1035 2,422\001
4 1 0 50 -1 16 5 0.0000 4 75 210 1575 1035 2,432\001
4 1 0 50 -1 16 5 0.0000 4 75 210 1935 1035 2,442\001
4 1 0 50 -1 16 5 0.0000 4 75 210 2295 1035 2,452\001
4 1 0 50 -1 16 5 0.0000 4 75 210 2655 1035 2,462\001
4 1 0 50 -1 16 5 0.0000 4 75 210 3015 1035 2,472\001
4 1 0 50 -1 16 5 0.0000 4 75 210 3465 1035 2,484\001
4 1 0 50 -1 16 6 0.0000 4 75 120 3465 315 14\001
4 1 0 50 -1 16 6 0.0000 4 75 120 3015 315 13\001
4 1 0 50 -1 16 6 0.0000 4 75 120 2835 315 12\001
4 1 0 50 -1 16 6 0.0000 4 75 120 2655 315 11\001
4 1 0 50 -1 16 6 0.0000 4 75 120 2475 315 10\001
4 1 0 50 -1 16 6 0.0000 4 75 60 2295 315 9\001
4 1 0 50 -1 16 6 0.0000 4 75 60 2115 315 8\001
4 1 0 50 -1 16 6 0.0000 4 75 60 1935 315 7\001
4 1 0 50 -1 16 6 0.0000 4 75 60 1755 315 6\001
4 1 0 50 -1 16 6 0.0000 4 75 60 1575 315 5\001
4 1 0 50 -1 16 6 0.0000 4 75 60 1395 315 4\001
4 1 0 50 -1 16 6 0.0000 4 75 60 1215 315 3\001
4 1 0 50 -1 16 6 0.0000 4 75 60 1035 315 2\001
4 1 0 50 -1 16 6 0.0000 4 75 60 855 315 1\001
4 2 0 50 -1 16 6 0.0000 4 105 825 4095 1170 Fr\351quence (GHz)\001
4 1 0 50 -1 16 6 0.0000 4 75 375 1755 1215 22 MHz\001
