#FIG 3.2  Produced by xfig version 3.2.5c
Landscape
Center
Metric
A4      
100.00
Single
-2
1200 2
2 1 0 1 0 7 50 -1 -1 0.000 0 0 -1 1 0 2
	1 1 1.00 60.00 120.00
	 450 900 6570 900
2 1 0 1 0 7 50 -1 -1 0.000 0 0 -1 1 0 2
	1 1 1.00 60.00 120.00
	 450 1800 6570 1800
2 1 0 1 0 7 50 -1 -1 0.000 0 0 -1 1 0 2
	1 1 1.00 60.00 120.00
	 450 3600 6570 3600
2 1 0 1 0 7 50 -1 -1 0.000 0 0 -1 1 0 2
	1 1 1.00 60.00 120.00
	 450 2700 6570 2700
2 1 0 1 0 7 50 -1 -1 0.000 0 0 -1 0 0 2
	 1350 2655 1350 2745
2 1 0 1 0 7 50 -1 -1 0.000 0 0 -1 0 0 2
	 990 3555 990 3645
2 1 2 1 0 7 50 -1 -1 3.000 0 0 -1 0 0 2
	 2160 450 2160 3870
2 1 0 1 0 7 50 -1 -1 0.000 0 0 -1 0 0 7
	 1395 2610 1440 2565 1710 2565 1755 2520 1800 2565 2070 2565
	 2115 2610
2 1 0 1 0 7 50 -1 -1 4.000 0 0 -1 0 0 7
	 1035 3510 1080 3465 1530 3465 1575 3420 1620 3465 2070 3465
	 2115 3510
2 1 0 1 0 7 50 -1 -1 4.000 0 0 -1 0 0 7
	 2205 2610 2250 2565 2385 2565 2430 2520 2475 2565 2610 2565
	 2655 2610
2 1 0 1 0 7 50 -1 -1 4.000 0 0 -1 0 0 7
	 2205 3510 2250 3465 2565 3465 2610 3420 2655 3465 2970 3465
	 3015 3510
2 1 0 1 0 7 50 -1 -1 0.000 0 0 -1 0 0 2
	 2160 2655 2160 2745
2 1 0 1 0 7 50 -1 -1 0.000 0 0 -1 0 0 2
	 2700 2655 2700 2745
2 1 0 1 0 7 50 -1 -1 0.000 0 0 -1 0 0 2
	 2160 3555 2160 3645
2 1 0 1 0 7 50 -1 -1 0.000 0 0 -1 0 0 2
	 3060 3555 3060 3645
2 1 0 1 0 7 50 -1 -1 4.000 0 0 -1 0 0 7
	 3105 3510 3150 3465 3330 3465 3375 3420 3420 3465 3600 3465
	 3645 3510
2 1 0 1 0 7 50 -1 -1 4.000 0 0 -1 0 0 6
	 2745 2610 2790 2565 3420 2565 3465 2520 3510 2565 3690 2565
2 1 0 1 0 7 50 -1 -1 4.000 0 0 -1 0 0 3
	 5400 2610 5355 2565 4950 2565
2 1 2 1 0 7 50 -1 -1 3.000 0 0 -1 0 0 2
	 3690 450 3690 3870
2 1 2 1 0 7 50 -1 -1 3.000 0 0 -1 0 0 2
	 4950 450 4950 3870
2 2 0 1 0 6 51 -1 30 0.000 0 0 -1 0 0 5
	 900 720 1800 720 1800 900 900 900 900 720
2 2 0 1 0 6 51 -1 30 0.000 0 0 7 0 0 5
	 5445 2520 6345 2520 6345 2700 5445 2700 5445 2520
2 2 0 1 0 6 51 -1 30 0.000 0 0 7 0 0 5
	 3690 3420 4590 3420 4590 3600 3690 3600 3690 3420
2 2 0 1 0 14 51 -1 30 0.000 0 0 7 0 0 5
	 1800 1620 2160 1620 2160 1800 1800 1800 1800 1620
2 2 0 1 0 14 51 -1 30 0.000 0 0 7 0 0 5
	 4590 1620 4950 1620 4950 1800 4590 1800 4590 1620
2 1 1 1 0 7 50 -1 -1 4.000 0 0 -1 0 0 2
	 3690 2565 4950 2565
4 1 12 50 -1 17 8 0.0000 4 135 885 990 3735 pr\352t \340 \351mettre\001
4 1 0 50 -1 16 12 0.0000 4 150 135 540 1755 B\001
4 1 0 50 -1 16 12 0.0000 4 150 135 540 2655 C\001
4 1 0 50 -1 16 12 0.0000 4 150 135 540 3555 D\001
4 1 0 50 -1 16 12 0.0000 4 150 135 540 855 A\001
4 1 0 50 -1 16 10 0.0000 4 120 630 1350 855 donn\351es\001
4 1 0 50 -1 16 10 0.0000 4 120 630 5895 2655 donn\351es\001
4 1 0 50 -1 16 10 0.0000 4 120 270 4770 1755 ack\001
4 1 0 50 -1 16 10 0.0000 4 120 270 1980 1755 ack\001
4 1 0 50 -1 16 10 0.0000 4 120 630 4140 3555 donn\351es\001
4 1 18 50 -1 17 8 0.0000 4 90 435 1755 2340 attente\001
4 1 18 50 -1 17 8 0.0000 4 105 525 1755 2475 du canal\001
4 1 18 50 -1 17 8 0.0000 4 90 435 3465 2340 attente\001
4 1 18 50 -1 17 8 0.0000 4 105 525 3465 2475 al\351atoire\001
4 1 18 50 -1 17 8 0.0000 4 135 420 5220 2340 reprise\001
4 1 18 50 -1 17 8 0.0000 4 90 435 5220 2475 attente\001
4 1 18 50 -1 17 8 0.0000 4 90 435 3375 3240 attente\001
4 1 18 50 -1 17 8 0.0000 4 105 525 3375 3375 al\351atoire\001
4 1 18 50 -1 17 8 0.0000 4 105 225 2430 2475 IFS\001
4 1 18 50 -1 17 8 0.0000 4 105 225 2610 3375 IFS\001
4 1 18 50 -1 17 8 0.0000 4 90 435 1575 3240 attente\001
4 1 18 50 -1 17 8 0.0000 4 105 525 1575 3375 du canal\001
4 1 12 50 -1 17 8 0.0000 4 135 885 1350 2835 pr\352t \340 \351mettre\001
4 1 8 50 -1 17 8 0.0000 4 135 705 4320 2340 suspension\001
4 1 8 50 -1 17 8 0.0000 4 105 1065 4320 2475 du d\351lai d'attente\001
