#FIG 3.2  Produced by xfig version 3.2.7a
Landscape
Center
Metric
A4
100.00
Single
-2
1200 2
1 1 0 1 0 11 51 -1 36 0.000 1 0.0000 5490 1440 630 180 5490 1440 6120 1440
1 1 0 1 0 11 54 -1 36 0.000 1 0.0000 5490 2070 630 180 5490 2070 6120 2070
1 1 0 1 0 0 55 -1 20 0.000 1 0.0000 5535 1485 630 180 5535 1485 6165 1485
1 1 0 1 0 0 55 -1 20 0.000 1 0.0000 5535 2115 630 180 5535 2115 6165 2115
2 1 0 1 0 7 50 -1 -1 0.000 0 0 -1 0 0 2
	 1170 1170 1530 1170
2 1 0 1 0 7 50 -1 -1 0.000 0 0 -1 0 0 2
	 1170 1350 1530 1350
2 1 0 1 0 7 50 -1 -1 0.000 0 0 -1 0 0 2
	 1170 1530 1530 1530
2 1 0 1 0 7 50 -1 -1 0.000 0 0 -1 0 0 2
	 1170 1710 1530 1710
2 1 0 1 0 7 50 -1 -1 0.000 0 0 -1 0 0 2
	 1170 1890 1530 1890
2 1 0 1 0 7 50 -1 -1 0.000 0 0 -1 0 0 2
	 1170 2070 1530 2070
2 1 0 1 0 7 50 -1 -1 0.000 0 0 -1 0 0 2
	 3240 900 3240 2970
2 1 0 1 0 7 50 -1 -1 0.000 0 0 -1 0 0 2
	 2880 900 2880 2970
2 1 0 1 0 7 50 -1 -1 0.000 0 0 -1 0 0 2
	 3600 900 3600 2970
2 1 0 1 0 7 50 -1 -1 0.000 0 0 -1 0 0 2
	 2520 1440 3960 1440
2 1 0 1 0 7 50 -1 -1 0.000 0 0 -1 0 0 2
	 2520 1620 3960 1620
2 1 0 1 0 7 50 -1 -1 0.000 0 0 -1 0 0 2
	 2520 2160 3960 2160
2 1 0 1 0 7 50 -1 -1 0.000 0 0 -1 0 0 2
	 2520 2340 3960 2340
2 2 0 1 0 19 51 -1 36 0.000 0 0 -1 0 0 5
	 1170 990 1530 990 1530 2520 1170 2520 1170 990
2 2 0 1 0 31 51 -1 36 0.000 0 0 -1 0 0 5
	 2520 900 3960 900 3960 2970 2520 2970 2520 900
2 2 0 1 0 13 52 -1 36 0.000 0 0 -1 0 0 5
	 450 630 1620 630 1620 3150 450 3150 450 630
2 2 0 1 0 0 55 -1 20 0.000 0 0 -1 0 0 5
	 495 675 1665 675 1665 3195 495 3195 495 675
2 2 0 1 0 0 55 -1 20 0.000 0 0 -1 0 0 5
	 2565 945 4005 945 4005 3015 2565 3015 2565 945
2 1 0 1 0 31 52 -1 38 0.000 0 0 -1 0 0 2
	 4860 1440 4860 2070
2 1 0 1 0 31 52 -1 36 0.000 0 0 -1 0 0 2
	 6120 1440 6120 2070
2 2 0 0 0 11 53 -1 36 0.000 0 0 -1 0 0 5
	 4860 1440 6120 1440 6120 2070 4860 2070 4860 1440
2 2 0 1 0 0 55 -1 20 0.000 0 0 -1 0 0 5
	 4905 1485 6165 1485 6165 2115 4905 2115 4905 1485
3 0 0 1 0 7 50 -1 -1 0.000 0 1 0 4
	1 1 1.00 60.00 120.00
	 1440 1620 1800 1620 2160 1440 2520 1485
	 0.000 1.000 1.000 0.000
3 0 0 1 0 7 50 -1 -1 0.000 0 1 0 4
	1 1 1.00 60.00 120.00
	 1440 1800 1890 1800 2160 2250 2520 2250
	 0.000 1.000 1.000 0.000
3 0 0 1 0 7 50 -1 -1 0.000 0 1 0 4
	1 1 1.00 60.00 120.00
	 1440 1980 1755 1980 2070 1620 2520 1575
	 0.000 1.000 1.000 0.000
3 0 0 1 0 7 50 -1 -1 0.000 0 1 0 3
	1 1 1.00 60.00 120.00
	 3870 1530 4365 1530 4860 1575
	 0.000 1.000 0.000
3 0 0 1 0 7 50 -1 -1 0.000 0 1 0 4
	1 1 1.00 60.00 120.00
	 3870 2250 4140 2250 4320 1710 4860 1620
	 0.000 1.000 1.000 0.000
4 2 0 50 -1 16 8 0.0000 4 90 75 1125 1125 0\001
4 2 0 50 -1 16 8 0.0000 4 90 75 1125 1305 1\001
4 2 0 50 -1 16 8 0.0000 4 90 75 1125 1485 2\001
4 2 0 50 -1 16 8 0.0000 4 90 75 1125 1665 3\001
4 2 0 50 -1 16 8 0.0000 4 90 75 1125 1845 4\001
4 1 0 50 -1 16 8 1.5708 4 15 135 1350 2250 ...\001
4 0 0 50 -1 16 8 0.7854 4 135 570 2700 855 nb références\001
4 0 0 50 -1 16 8 0.7854 4 135 720 3060 855 sens (R/W)\001
4 0 0 50 -1 16 8 0.7854 4 105 360 3420 855 offset\001
4 0 0 50 -1 16 8 0.7854 4 105 375 3780 855 fichier\001
4 1 0 50 -1 16 8 0.0000 4 105 105 3060 1575 R\001
4 1 0 50 -1 16 8 0.0000 4 90 75 2700 2295 1\001
4 1 0 50 -1 16 8 0.0000 4 105 105 3060 2295 R\001
4 2 0 50 -1 16 8 0.0000 4 90 75 1125 2025 5\001
4 1 0 50 -1 16 8 0.0000 4 90 75 2700 1575 2\001
4 1 0 50 -1 16 8 0.0000 4 90 150 3420 1575 25\001
4 1 0 50 -1 16 8 0.0000 4 90 150 3420 2295 33\001
4 1 0 50 -1 17 8 0.0000 4 105 1350 3240 3150 ouvertures de fichiers\001
4 2 0 50 -1 17 8 0.0000 4 135 765 1530 2655 descripteurs\001
4 1 0 50 -1 17 8 0.0000 4 135 885 990 405 descripteur de\001
4 1 0 50 -1 17 8 0.0000 4 105 645 990 570 processus\001
4 2 0 50 -1 17 8 0.0000 4 105 840 1530 2820 de fichiers du\001
4 2 0 50 -1 17 8 0.0000 4 105 645 1530 2985 processus\001
4 1 0 52 -1 17 8 0.0000 4 105 660 5490 1215 fichier toto\001
