#FIG 3.2
Portrait
Center
Metric
A4      
100.00
Single
-2
1200 2
2 1 0 1 -1 -1 0 0 -1 0.000 0 0 -1 0 0 2
	 2925 225 2925 2025
2 1 0 1 -1 -1 0 0 -1 0.000 0 0 -1 0 0 2
	 540 2250 2340 2250
2 2 0 1 -1 -1 0 0 -1 0.000 0 0 0 0 0 5
	 2700 675 2700 225 2250 225 2250 675 2700 675
2 1 0 1 -1 -1 0 0 -1 0.000 0 0 -1 0 0 2
	 225 675 2025 675
2 2 0 1 -1 -1 0 0 -1 0.000 0 0 0 0 0 5
	 2700 1350 2700 900 2250 900 2250 1350 2700 1350
2 1 0 1 -1 -1 0 0 -1 0.000 0 0 -1 0 0 2
	 450 675 450 900
2 1 0 1 -1 -1 0 0 -1 0.000 0 0 -1 0 0 2
	 2700 450 2925 450
2 1 0 1 -1 -1 0 0 -1 0.000 0 0 -1 0 0 2
	 2700 1125 2925 1125
2 1 0 1 -1 -1 0 0 -1 0.000 0 0 -1 0 0 2
	 2475 1800 2925 1800
2 1 0 1 -1 -1 0 0 -1 0.000 0 0 -1 0 0 3
	 2250 450 1800 450 1800 675
2 2 0 1 -1 -1 0 0 -1 0.000 0 0 0 0 0 5
	 675 1350 675 900 225 900 225 1350 675 1350
2 2 0 1 -1 -1 0 0 -1 0.000 0 0 0 0 0 5
	 1575 2025 1575 1575 1125 1575 1125 2025 1575 2025
2 1 0 1 -1 -1 0 0 -1 0.000 0 0 -1 0 0 2
	 1350 2025 1350 2250
2 2 0 1 -1 -1 0 0 -1 0.000 0 0 0 0 0 5
	 2475 2025 2475 1575 2025 1575 2025 2025 2475 2025
2 1 0 1 -1 -1 0 0 -1 0.000 0 0 -1 0 0 2
	 2250 2025 2250 2250
4 1 -1 0 0 16 12 0.0000 4 135 135 450 1215 A\001
4 1 -1 0 0 16 12 0.0000 4 135 120 1350 1890 E\001
4 1 -1 0 0 16 12 0.0000 4 135 135 2250 1890 D\001
4 1 -1 0 0 16 12 0.0000 4 135 135 2475 1215 C\001
4 1 -1 0 0 16 12 0.0000 4 135 120 2475 540 B\001
4 1 -1 0 0 16 12 0.0000 4 135 225 3105 1170 R2\001
4 1 -1 0 0 16 12 0.0000 4 135 225 1125 630 R1\001
4 1 -1 0 0 16 12 0.0000 4 135 225 720 2205 R3\001
