#FIG 3.2  Produced by xfig version 3.2.5-alpha5
Portrait
Center
Metric
A4      
100.00
Single
-3
1200 2
2 1 1 1 0 7 50 -1 -1 4.000 0 0 -1 0 0 2
	 1800 900 1575 1350
2 1 1 1 0 7 50 -1 -1 4.000 0 0 -1 0 0 2
	 3825 900 3600 1350
2 1 1 1 0 7 50 -1 -1 4.000 0 0 -1 0 0 2
	 3825 900 4050 1350
2 1 1 1 0 7 50 -1 -1 4.000 0 0 -1 0 0 2
	 4500 900 4725 1350
2 2 0 1 0 7 50 -1 -1 0.000 0 0 -1 0 0 5
	 1800 675 4500 675 4500 900 1800 900 1800 675
2 1 1 1 0 7 50 -1 -1 4.000 0 0 -1 0 0 2
	 3600 1575 2925 2025
2 1 1 1 0 7 50 -1 -1 4.000 0 0 -1 0 0 2
	 1575 1575 1575 2025
2 2 0 1 0 7 50 -1 -1 0.000 0 0 -1 0 0 5
	 1575 1350 3600 1350 3600 1575 1575 1575 1575 1350
2 1 1 1 0 7 50 -1 -1 4.000 0 0 -1 0 0 2
	 1575 2250 1575 2700
2 1 1 1 0 7 50 -1 -1 4.000 0 0 -1 0 0 2
	 3375 2250 3375 2700
2 2 0 1 0 7 50 -1 -1 0.000 0 0 -1 0 0 5
	 1575 2025 2925 2025 2925 2250 1575 2250 1575 2025
2 2 0 1 0 7 50 -1 -1 0.000 0 0 -1 0 0 5
	 2925 2025 3375 2025 3375 2250 2925 2250 2925 2025
2 2 0 1 0 7 50 -1 -1 0.000 0 0 -1 0 0 5
	 1575 2700 3375 2700 3375 2925 1575 2925 1575 2700
2 2 0 1 0 7 50 -1 -1 0.000 0 0 -1 0 0 5
	 1125 2700 1575 2700 1575 2925 1125 2925 1125 2700
2 1 1 1 0 7 50 -1 -1 4.000 0 0 -1 0 0 2
	 4050 1575 4050 2025
2 1 1 1 0 7 50 -1 -1 4.000 0 0 -1 0 0 2
	 4725 1575 4500 2025
2 2 0 1 0 7 50 -1 -1 0.000 0 0 -1 0 0 5
	 4050 1350 4725 1350 4725 1575 4050 1575 4050 1350
2 1 1 1 0 7 50 -1 -1 4.000 0 0 -1 0 0 2
	 4050 2250 4050 2700
2 1 1 1 0 7 50 -1 -1 4.000 0 0 -1 0 0 2
	 4950 2250 4950 2700
2 2 0 1 0 7 50 -1 -1 0.000 0 0 -1 0 0 5
	 4050 2025 4500 2025 4500 2250 4050 2250 4050 2025
2 2 0 1 0 7 50 -1 -1 0.000 0 0 -1 0 0 5
	 4500 2025 4950 2025 4950 2250 4500 2250 4500 2025
2 2 0 1 0 7 50 -1 -1 0.000 0 0 -1 0 0 5
	 4050 2700 4950 2700 4950 2925 4050 2925 4050 2700
2 2 0 1 0 7 50 -1 -1 0.000 0 0 -1 0 0 5
	 3600 2700 4050 2700 4050 2925 3600 2925 3600 2700
4 1 0 50 -1 16 8 0.0000 6 120 480 3150 855 donn\351es\001
4 1 0 50 -1 16 8 0.0000 6 90 285 3150 2205 MAC\001
4 1 0 50 -1 16 8 0.0000 6 120 390 1350 2880 en-t\352te\001
4 1 0 50 -1 16 8 0.0000 6 90 285 4725 2205 MAC\001
4 1 0 50 -1 16 8 0.0000 6 120 390 3825 2880 en-t\352te\001
4 1 0 50 -1 17 9 0.0000 6 150 960 3690 1125 fragmentation\001
4 1 0 50 -1 17 9 0.0000 6 150 855 2475 1800 compression\001
4 1 0 50 -1 17 9 0.0000 6 120 795 2475 2475 chiffrement\001
4 1 0 50 -1 17 9 0.0000 6 120 795 4500 2475 chiffrement\001
4 1 0 50 -1 17 9 0.0000 6 150 855 4365 1800 compression\001
