#FIG 3.2  Produced by xfig version 3.2.5-alpha5
Portrait
Center
Metric
A4      
100.00
Single
-3
1200 2
2 1 1 1 0 7 50 -1 -1 4.000 0 0 -1 0 0 2
	 1350 1350 1350 1800
2 1 0 1 0 7 50 -1 -1 0.000 0 0 -1 0 0 2
	 2250 1350 2250 1800
2 1 0 1 0 7 50 -1 -1 0.000 0 0 -1 0 0 2
	 3150 1350 3150 1800
2 1 0 1 0 7 50 -1 -1 0.000 0 0 -1 0 0 2
	 4050 1350 4050 1800
2 1 0 1 0 7 50 -1 -1 0.000 0 0 -1 0 0 2
	 450 1350 4950 1350
2 1 0 1 0 7 50 -1 -1 0.000 0 0 -1 0 0 2
	 450 1800 4950 1800
2 1 0 1 0 7 50 -1 -1 0.000 0 0 -1 0 0 2
	 450 2250 4950 2250
2 2 0 1 0 7 50 -1 -1 0.000 0 0 -1 0 0 5
	 450 450 4950 450 4950 2700 450 2700 450 450
2 1 0 1 0 7 50 -1 -1 0.000 0 0 -1 0 0 2
	 450 900 4950 900
2 1 0 1 0 7 50 -1 -1 0.000 0 0 -1 0 0 7
	 4995 900 5040 945 5040 1530 5085 1575 5040 1620 5040 2205
	 4995 2250
4 1 0 50 -1 16 9 0.0000 6 120 765 900 1620 Handshake\001
4 1 0 50 -1 16 9 0.0000 6 150 540 1800 1530 Change\001
4 1 0 50 -1 16 9 0.0000 6 120 330 2700 1620 Alert\001
4 1 0 50 -1 16 9 0.0000 6 150 465 1800 1665 Cipher\001
4 1 0 50 -1 16 9 0.0000 6 150 765 3600 1530 Application\001
4 1 0 50 -1 16 9 0.0000 6 15 135 4500 1575 ...\001
4 1 0 50 -1 16 9 0.0000 6 120 300 3600 1665 data\001
4 1 0 50 -1 16 9 0.0000 6 120 600 2700 1170 API SSL\001
4 1 0 50 -1 16 9 0.0000 6 150 765 2700 720 Application\001
4 1 0 50 -1 16 9 0.0000 6 120 300 2700 2520 TCP\001
4 1 0 50 -1 16 9 0.0000 6 150 915 2700 2070 Record Layer\001
4 0 0 50 -1 16 10 0.0000 6 120 270 5130 1620 TLS\001
